^C:\USERS\RUBYB_000\DOCUMENTS\A-UNIVERSITY\2NDYEAR\SEMESTER 2\COS30031\LAB\ZORKISH\ZORKISH\DEBUG\ABOUT.OBJ|C:\USERS\RUBYB_000\DOCUMENTS\A-UNIVERSITY\2NDYEAR\SEMESTER 2\COS30031\LAB\ZORKISH\ZORKISH\DEBUG\GAMECONTROLLER.OBJ|C:\USERS\RUBYB_000\DOCUMENTS\A-UNIVERSITY\2NDYEAR\SEMESTER 2\COS30031\LAB\ZORKISH\ZORKISH\DEBUG\GAMEPLAY.OBJ|C:\USERS\RUBYB_000\DOCUMENTS\A-UNIVERSITY\2NDYEAR\SEMESTER 2\COS30031\LAB\ZORKISH\ZORKISH\DEBUG\HELP.OBJ|C:\USERS\RUBYB_000\DOCUMENTS\A-UNIVERSITY\2NDYEAR\SEMESTER 2\COS30031\LAB\ZORKISH\ZORKISH\DEBUG\MAINMENU.OBJ|C:\USERS\RUBYB_000\DOCUMENTS\A-UNIVERSITY\2NDYEAR\SEMESTER 2\COS30031\LAB\ZORKISH\ZORKISH\DEBUG\NEWHIGHSCORE.OBJ|C:\USERS\RUBYB_000\DOCUMENTS\A-UNIVERSITY\2NDYEAR\SEMESTER 2\COS30031\LAB\ZORKISH\ZORKISH\DEBUG\SELECTADVENTURE.OBJ|C:\USERS\RUBYB_000\DOCUMENTS\A-UNIVERSITY\2NDYEAR\SEMESTER 2\COS30031\LAB\ZORKISH\ZORKISH\DEBUG\STATE.OBJ|C:\USERS\RUBYB_000\DOCUMENTS\A-UNIVERSITY\2NDYEAR\SEMESTER 2\COS30031\LAB\ZORKISH\ZORKISH\DEBUG\STDAFX.OBJ|C:\USERS\RUBYB_000\DOCUMENTS\A-UNIVERSITY\2NDYEAR\SEMESTER 2\COS30031\LAB\ZORKISH\ZORKISH\DEBUG\VIEWHALLOFFAME.OBJ|C:\USERS\RUBYB_000\DOCUMENTS\A-UNIVERSITY\2NDYEAR\SEMESTER 2\COS30031\LAB\ZORKISH\ZORKISH\DEBUG\ZORKISH.OBJ
C:\WINDOWS\GLOBALIZATION\SORTING\SORTDEFAULT.NLS
C:\PROGRAM FILES (X86)\WINDOWS KITS\8.1\LIB\WINV6.3\UM\X86\KERNEL32.LIB
C:\PROGRAM FILES (X86)\WINDOWS KITS\8.1\LIB\WINV6.3\UM\X86\USER32.LIB
C:\PROGRAM FILES (X86)\WINDOWS KITS\8.1\LIB\WINV6.3\UM\X86\GDI32.LIB
C:\PROGRAM FILES (X86)\WINDOWS KITS\8.1\LIB\WINV6.3\UM\X86\WINSPOOL.LIB
C:\PROGRAM FILES (X86)\WINDOWS KITS\8.1\LIB\WINV6.3\UM\X86\COMDLG32.LIB
C:\PROGRAM FILES (X86)\WINDOWS KITS\8.1\LIB\WINV6.3\UM\X86\ADVAPI32.LIB
C:\PROGRAM FILES (X86)\WINDOWS KITS\8.1\LIB\WINV6.3\UM\X86\SHELL32.LIB
C:\PROGRAM FILES (X86)\WINDOWS KITS\8.1\LIB\WINV6.3\UM\X86\OLE32.LIB
C:\PROGRAM FILES (X86)\WINDOWS KITS\8.1\LIB\WINV6.3\UM\X86\OLEAUT32.LIB
C:\PROGRAM FILES (X86)\WINDOWS KITS\8.1\LIB\WINV6.3\UM\X86\UUID.LIB
C:\PROGRAM FILES (X86)\WINDOWS KITS\8.1\LIB\WINV6.3\UM\X86\ODBC32.LIB
C:\PROGRAM FILES (X86)\WINDOWS KITS\8.1\LIB\WINV6.3\UM\X86\ODBCCP32.LIB
C:\USERS\RUBYB_000\DOCUMENTS\A-UNIVERSITY\2NDYEAR\SEMESTER 2\COS30031\LAB\ZORKISH\ZORKISH\DEBUG\ABOUT.OBJ
C:\USERS\RUBYB_000\DOCUMENTS\A-UNIVERSITY\2NDYEAR\SEMESTER 2\COS30031\LAB\ZORKISH\ZORKISH\DEBUG\GAMECONTROLLER.OBJ
C:\USERS\RUBYB_000\DOCUMENTS\A-UNIVERSITY\2NDYEAR\SEMESTER 2\COS30031\LAB\ZORKISH\ZORKISH\DEBUG\GAMEPLAY.OBJ
C:\USERS\RUBYB_000\DOCUMENTS\A-UNIVERSITY\2NDYEAR\SEMESTER 2\COS30031\LAB\ZORKISH\ZORKISH\DEBUG\HELP.OBJ
C:\USERS\RUBYB_000\DOCUMENTS\A-UNIVERSITY\2NDYEAR\SEMESTER 2\COS30031\LAB\ZORKISH\ZORKISH\DEBUG\MAINMENU.OBJ
C:\USERS\RUBYB_000\DOCUMENTS\A-UNIVERSITY\2NDYEAR\SEMESTER 2\COS30031\LAB\ZORKISH\ZORKISH\DEBUG\NEWHIGHSCORE.OBJ
C:\USERS\RUBYB_000\DOCUMENTS\A-UNIVERSITY\2NDYEAR\SEMESTER 2\COS30031\LAB\ZORKISH\ZORKISH\DEBUG\SELECTADVENTURE.OBJ
C:\USERS\RUBYB_000\DOCUMENTS\A-UNIVERSITY\2NDYEAR\SEMESTER 2\COS30031\LAB\ZORKISH\ZORKISH\DEBUG\STATE.OBJ
C:\USERS\RUBYB_000\DOCUMENTS\A-UNIVERSITY\2NDYEAR\SEMESTER 2\COS30031\LAB\ZORKISH\ZORKISH\DEBUG\STDAFX.OBJ
C:\USERS\RUBYB_000\DOCUMENTS\A-UNIVERSITY\2NDYEAR\SEMESTER 2\COS30031\LAB\ZORKISH\ZORKISH\DEBUG\VIEWHALLOFFAME.OBJ
C:\USERS\RUBYB_000\DOCUMENTS\A-UNIVERSITY\2NDYEAR\SEMESTER 2\COS30031\LAB\ZORKISH\ZORKISH\DEBUG\ZORKISH.OBJ
C:\WINDOWS\SYSTEM32\TZRES.DLL
C:\PROGRAM FILES (X86)\MICROSOFT VISUAL STUDIO 14.0\VC\LIB\MSVCPRTD.LIB
C:\PROGRAM FILES (X86)\MICROSOFT VISUAL STUDIO 14.0\VC\LIB\MSVCRTD.LIB
C:\PROGRAM FILES (X86)\MICROSOFT VISUAL STUDIO 14.0\VC\LIB\OLDNAMES.LIB
C:\PROGRAM FILES (X86)\MICROSOFT VISUAL STUDIO 14.0\VC\LIB\VCRUNTIMED.LIB
C:\PROGRAM FILES (X86)\WINDOWS KITS\10\LIB\10.0.10240.0\UCRT\X86\UCRTD.LIB
