^C:\USERS\RUBYB_000\DOCUMENTS\A-UNIVERSITY\2NDYEAR\SEMESTER 2\COS30031\LAB\ZORKISH\ZORKISH\STDAFX.CPP
C:\USERS\RUBYB_000\DOCUMENTS\A-UNIVERSITY\2NDYEAR\SEMESTER 2\COS30031\LAB\ZORKISH\ZORKISH\DEBUG\ZORKISH.PCH
C:\USERS\RUBYB_000\DOCUMENTS\A-UNIVERSITY\2NDYEAR\SEMESTER 2\COS30031\LAB\ZORKISH\ZORKISH\DEBUG\VC140.PDB
C:\USERS\RUBYB_000\DOCUMENTS\A-UNIVERSITY\2NDYEAR\SEMESTER 2\COS30031\LAB\ZORKISH\ZORKISH\DEBUG\VC140.IDB
C:\USERS\RUBYB_000\DOCUMENTS\A-UNIVERSITY\2NDYEAR\SEMESTER 2\COS30031\LAB\ZORKISH\ZORKISH\DEBUG\STDAFX.OBJ
^C:\USERS\RUBYB_000\DOCUMENTS\A-UNIVERSITY\2NDYEAR\SEMESTER 2\COS30031\LAB\ZORKISH\ZORKISH\ABOUT.CPP|C:\USERS\RUBYB_000\DOCUMENTS\A-UNIVERSITY\2NDYEAR\SEMESTER 2\COS30031\LAB\ZORKISH\ZORKISH\GAMEPLAY.CPP|C:\USERS\RUBYB_000\DOCUMENTS\A-UNIVERSITY\2NDYEAR\SEMESTER 2\COS30031\LAB\ZORKISH\ZORKISH\HELP.CPP|C:\USERS\RUBYB_000\DOCUMENTS\A-UNIVERSITY\2NDYEAR\SEMESTER 2\COS30031\LAB\ZORKISH\ZORKISH\MAINMENU.CPP|C:\USERS\RUBYB_000\DOCUMENTS\A-UNIVERSITY\2NDYEAR\SEMESTER 2\COS30031\LAB\ZORKISH\ZORKISH\NEWHIGHSCORE.CPP|C:\USERS\RUBYB_000\DOCUMENTS\A-UNIVERSITY\2NDYEAR\SEMESTER 2\COS30031\LAB\ZORKISH\ZORKISH\SELECTADVENTURE.CPP|C:\USERS\RUBYB_000\DOCUMENTS\A-UNIVERSITY\2NDYEAR\SEMESTER 2\COS30031\LAB\ZORKISH\ZORKISH\STATE.CPP|C:\USERS\RUBYB_000\DOCUMENTS\A-UNIVERSITY\2NDYEAR\SEMESTER 2\COS30031\LAB\ZORKISH\ZORKISH\VIEWHALLOFFAME.CPP|C:\USERS\RUBYB_000\DOCUMENTS\A-UNIVERSITY\2NDYEAR\SEMESTER 2\COS30031\LAB\ZORKISH\ZORKISH\ZORKISH.CPP
C:\USERS\RUBYB_000\DOCUMENTS\A-UNIVERSITY\2NDYEAR\SEMESTER 2\COS30031\LAB\ZORKISH\ZORKISH\DEBUG\VC140.PDB
C:\USERS\RUBYB_000\DOCUMENTS\A-UNIVERSITY\2NDYEAR\SEMESTER 2\COS30031\LAB\ZORKISH\ZORKISH\DEBUG\VC140.IDB
C:\USERS\RUBYB_000\DOCUMENTS\A-UNIVERSITY\2NDYEAR\SEMESTER 2\COS30031\LAB\ZORKISH\ZORKISH\DEBUG\ABOUT.OBJ
C:\USERS\RUBYB_000\DOCUMENTS\A-UNIVERSITY\2NDYEAR\SEMESTER 2\COS30031\LAB\ZORKISH\ZORKISH\DEBUG\GAMEPLAY.OBJ
C:\USERS\RUBYB_000\DOCUMENTS\A-UNIVERSITY\2NDYEAR\SEMESTER 2\COS30031\LAB\ZORKISH\ZORKISH\DEBUG\HELP.OBJ
C:\USERS\RUBYB_000\DOCUMENTS\A-UNIVERSITY\2NDYEAR\SEMESTER 2\COS30031\LAB\ZORKISH\ZORKISH\DEBUG\NEWHIGHSCORE.OBJ
C:\USERS\RUBYB_000\DOCUMENTS\A-UNIVERSITY\2NDYEAR\SEMESTER 2\COS30031\LAB\ZORKISH\ZORKISH\DEBUG\SELECTADVENTURE.OBJ
C:\USERS\RUBYB_000\DOCUMENTS\A-UNIVERSITY\2NDYEAR\SEMESTER 2\COS30031\LAB\ZORKISH\ZORKISH\DEBUG\STATE.OBJ
C:\USERS\RUBYB_000\DOCUMENTS\A-UNIVERSITY\2NDYEAR\SEMESTER 2\COS30031\LAB\ZORKISH\ZORKISH\DEBUG\VIEWHALLOFFAME.OBJ
C:\USERS\RUBYB_000\DOCUMENTS\A-UNIVERSITY\2NDYEAR\SEMESTER 2\COS30031\LAB\ZORKISH\ZORKISH\DEBUG\ZORKISH.OBJ
^C:\USERS\RUBYB_000\DOCUMENTS\A-UNIVERSITY\2NDYEAR\SEMESTER 2\COS30031\LAB\ZORKISH\ZORKISH\ABOUT.CPP
C:\USERS\RUBYB_000\DOCUMENTS\A-UNIVERSITY\2NDYEAR\SEMESTER 2\COS30031\LAB\ZORKISH\ZORKISH\DEBUG\VC140.PDB
C:\USERS\RUBYB_000\DOCUMENTS\A-UNIVERSITY\2NDYEAR\SEMESTER 2\COS30031\LAB\ZORKISH\ZORKISH\DEBUG\VC140.IDB
C:\USERS\RUBYB_000\DOCUMENTS\A-UNIVERSITY\2NDYEAR\SEMESTER 2\COS30031\LAB\ZORKISH\ZORKISH\DEBUG\ABOUT.OBJ
^C:\USERS\RUBYB_000\DOCUMENTS\A-UNIVERSITY\2NDYEAR\SEMESTER 2\COS30031\LAB\ZORKISH\ZORKISH\GAMEPLAY.CPP
C:\USERS\RUBYB_000\DOCUMENTS\A-UNIVERSITY\2NDYEAR\SEMESTER 2\COS30031\LAB\ZORKISH\ZORKISH\DEBUG\VC140.PDB
C:\USERS\RUBYB_000\DOCUMENTS\A-UNIVERSITY\2NDYEAR\SEMESTER 2\COS30031\LAB\ZORKISH\ZORKISH\DEBUG\VC140.IDB
C:\USERS\RUBYB_000\DOCUMENTS\A-UNIVERSITY\2NDYEAR\SEMESTER 2\COS30031\LAB\ZORKISH\ZORKISH\DEBUG\GAMEPLAY.OBJ
^C:\USERS\RUBYB_000\DOCUMENTS\A-UNIVERSITY\2NDYEAR\SEMESTER 2\COS30031\LAB\ZORKISH\ZORKISH\HELP.CPP
C:\USERS\RUBYB_000\DOCUMENTS\A-UNIVERSITY\2NDYEAR\SEMESTER 2\COS30031\LAB\ZORKISH\ZORKISH\DEBUG\VC140.PDB
C:\USERS\RUBYB_000\DOCUMENTS\A-UNIVERSITY\2NDYEAR\SEMESTER 2\COS30031\LAB\ZORKISH\ZORKISH\DEBUG\VC140.IDB
^C:\USERS\RUBYB_000\DOCUMENTS\A-UNIVERSITY\2NDYEAR\SEMESTER 2\COS30031\LAB\ZORKISH\ZORKISH\MAINMENU.CPP
C:\USERS\RUBYB_000\DOCUMENTS\A-UNIVERSITY\2NDYEAR\SEMESTER 2\COS30031\LAB\ZORKISH\ZORKISH\DEBUG\VC140.PDB
C:\USERS\RUBYB_000\DOCUMENTS\A-UNIVERSITY\2NDYEAR\SEMESTER 2\COS30031\LAB\ZORKISH\ZORKISH\DEBUG\VC140.IDB
C:\USERS\RUBYB_000\DOCUMENTS\A-UNIVERSITY\2NDYEAR\SEMESTER 2\COS30031\LAB\ZORKISH\ZORKISH\DEBUG\MAINMENU.OBJ
^C:\USERS\RUBYB_000\DOCUMENTS\A-UNIVERSITY\2NDYEAR\SEMESTER 2\COS30031\LAB\ZORKISH\ZORKISH\NEWHIGHSCORE.CPP
C:\USERS\RUBYB_000\DOCUMENTS\A-UNIVERSITY\2NDYEAR\SEMESTER 2\COS30031\LAB\ZORKISH\ZORKISH\DEBUG\VC140.PDB
^C:\USERS\RUBYB_000\DOCUMENTS\A-UNIVERSITY\2NDYEAR\SEMESTER 2\COS30031\LAB\ZORKISH\ZORKISH\SELECTADVENTURE.CPP
C:\USERS\RUBYB_000\DOCUMENTS\A-UNIVERSITY\2NDYEAR\SEMESTER 2\COS30031\LAB\ZORKISH\ZORKISH\DEBUG\VC140.PDB
C:\USERS\RUBYB_000\DOCUMENTS\A-UNIVERSITY\2NDYEAR\SEMESTER 2\COS30031\LAB\ZORKISH\ZORKISH\DEBUG\VC140.IDB
C:\USERS\RUBYB_000\DOCUMENTS\A-UNIVERSITY\2NDYEAR\SEMESTER 2\COS30031\LAB\ZORKISH\ZORKISH\DEBUG\SELECTADVENTURE.OBJ
^C:\USERS\RUBYB_000\DOCUMENTS\A-UNIVERSITY\2NDYEAR\SEMESTER 2\COS30031\LAB\ZORKISH\ZORKISH\STATE.CPP
C:\USERS\RUBYB_000\DOCUMENTS\A-UNIVERSITY\2NDYEAR\SEMESTER 2\COS30031\LAB\ZORKISH\ZORKISH\DEBUG\VC140.PDB
^C:\USERS\RUBYB_000\DOCUMENTS\A-UNIVERSITY\2NDYEAR\SEMESTER 2\COS30031\LAB\ZORKISH\ZORKISH\VIEWHALLOFFAME.CPP
C:\USERS\RUBYB_000\DOCUMENTS\A-UNIVERSITY\2NDYEAR\SEMESTER 2\COS30031\LAB\ZORKISH\ZORKISH\DEBUG\VC140.PDB
C:\USERS\RUBYB_000\DOCUMENTS\A-UNIVERSITY\2NDYEAR\SEMESTER 2\COS30031\LAB\ZORKISH\ZORKISH\DEBUG\VC140.IDB
C:\USERS\RUBYB_000\DOCUMENTS\A-UNIVERSITY\2NDYEAR\SEMESTER 2\COS30031\LAB\ZORKISH\ZORKISH\DEBUG\VIEWHALLOFFAME.OBJ
^C:\USERS\RUBYB_000\DOCUMENTS\A-UNIVERSITY\2NDYEAR\SEMESTER 2\COS30031\LAB\ZORKISH\ZORKISH\ZORKISH.CPP
C:\USERS\RUBYB_000\DOCUMENTS\A-UNIVERSITY\2NDYEAR\SEMESTER 2\COS30031\LAB\ZORKISH\ZORKISH\DEBUG\VC140.PDB
C:\USERS\RUBYB_000\DOCUMENTS\A-UNIVERSITY\2NDYEAR\SEMESTER 2\COS30031\LAB\ZORKISH\ZORKISH\DEBUG\VC140.IDB
^C:\USERS\RUBYB_000\DOCUMENTS\A-UNIVERSITY\2NDYEAR\SEMESTER 2\COS30031\LAB\ZORKISH\ZORKISH\ABOUT.CPP|C:\USERS\RUBYB_000\DOCUMENTS\A-UNIVERSITY\2NDYEAR\SEMESTER 2\COS30031\LAB\ZORKISH\ZORKISH\GAMEPLAY.CPP|C:\USERS\RUBYB_000\DOCUMENTS\A-UNIVERSITY\2NDYEAR\SEMESTER 2\COS30031\LAB\ZORKISH\ZORKISH\HELP.CPP|C:\USERS\RUBYB_000\DOCUMENTS\A-UNIVERSITY\2NDYEAR\SEMESTER 2\COS30031\LAB\ZORKISH\ZORKISH\MAINMENU.CPP|C:\USERS\RUBYB_000\DOCUMENTS\A-UNIVERSITY\2NDYEAR\SEMESTER 2\COS30031\LAB\ZORKISH\ZORKISH\NEWHIGHSCORE.CPP|C:\USERS\RUBYB_000\DOCUMENTS\A-UNIVERSITY\2NDYEAR\SEMESTER 2\COS30031\LAB\ZORKISH\ZORKISH\SELECTADVENTURE.CPP|C:\USERS\RUBYB_000\DOCUMENTS\A-UNIVERSITY\2NDYEAR\SEMESTER 2\COS30031\LAB\ZORKISH\ZORKISH\STATE.CPP|C:\USERS\RUBYB_000\DOCUMENTS\A-UNIVERSITY\2NDYEAR\SEMESTER 2\COS30031\LAB\ZORKISH\ZORKISH\VIEWHALLOFFAME.CPP
C:\USERS\RUBYB_000\DOCUMENTS\A-UNIVERSITY\2NDYEAR\SEMESTER 2\COS30031\LAB\ZORKISH\ZORKISH\DEBUG\VC140.PDB
C:\USERS\RUBYB_000\DOCUMENTS\A-UNIVERSITY\2NDYEAR\SEMESTER 2\COS30031\LAB\ZORKISH\ZORKISH\DEBUG\VC140.IDB
C:\USERS\RUBYB_000\DOCUMENTS\A-UNIVERSITY\2NDYEAR\SEMESTER 2\COS30031\LAB\ZORKISH\ZORKISH\DEBUG\MAINMENU.OBJ
C:\USERS\RUBYB_000\DOCUMENTS\A-UNIVERSITY\2NDYEAR\SEMESTER 2\COS30031\LAB\ZORKISH\ZORKISH\DEBUG\ABOUT.OBJ
C:\USERS\RUBYB_000\DOCUMENTS\A-UNIVERSITY\2NDYEAR\SEMESTER 2\COS30031\LAB\ZORKISH\ZORKISH\DEBUG\GAMEPLAY.OBJ
C:\USERS\RUBYB_000\DOCUMENTS\A-UNIVERSITY\2NDYEAR\SEMESTER 2\COS30031\LAB\ZORKISH\ZORKISH\DEBUG\HELP.OBJ
C:\USERS\RUBYB_000\DOCUMENTS\A-UNIVERSITY\2NDYEAR\SEMESTER 2\COS30031\LAB\ZORKISH\ZORKISH\DEBUG\NEWHIGHSCORE.OBJ
C:\USERS\RUBYB_000\DOCUMENTS\A-UNIVERSITY\2NDYEAR\SEMESTER 2\COS30031\LAB\ZORKISH\ZORKISH\DEBUG\SELECTADVENTURE.OBJ
C:\USERS\RUBYB_000\DOCUMENTS\A-UNIVERSITY\2NDYEAR\SEMESTER 2\COS30031\LAB\ZORKISH\ZORKISH\DEBUG\STATE.OBJ
C:\USERS\RUBYB_000\DOCUMENTS\A-UNIVERSITY\2NDYEAR\SEMESTER 2\COS30031\LAB\ZORKISH\ZORKISH\DEBUG\VIEWHALLOFFAME.OBJ
^C:\USERS\RUBYB_000\DOCUMENTS\A-UNIVERSITY\2NDYEAR\SEMESTER 2\COS30031\LAB\ZORKISH\ZORKISH\ABOUT.CPP|C:\USERS\RUBYB_000\DOCUMENTS\A-UNIVERSITY\2NDYEAR\SEMESTER 2\COS30031\LAB\ZORKISH\ZORKISH\GAMECONTROLLER.CPP|C:\USERS\RUBYB_000\DOCUMENTS\A-UNIVERSITY\2NDYEAR\SEMESTER 2\COS30031\LAB\ZORKISH\ZORKISH\GAMEPLAY.CPP|C:\USERS\RUBYB_000\DOCUMENTS\A-UNIVERSITY\2NDYEAR\SEMESTER 2\COS30031\LAB\ZORKISH\ZORKISH\HELP.CPP|C:\USERS\RUBYB_000\DOCUMENTS\A-UNIVERSITY\2NDYEAR\SEMESTER 2\COS30031\LAB\ZORKISH\ZORKISH\MAINMENU.CPP|C:\USERS\RUBYB_000\DOCUMENTS\A-UNIVERSITY\2NDYEAR\SEMESTER 2\COS30031\LAB\ZORKISH\ZORKISH\NEWHIGHSCORE.CPP|C:\USERS\RUBYB_000\DOCUMENTS\A-UNIVERSITY\2NDYEAR\SEMESTER 2\COS30031\LAB\ZORKISH\ZORKISH\SELECTADVENTURE.CPP|C:\USERS\RUBYB_000\DOCUMENTS\A-UNIVERSITY\2NDYEAR\SEMESTER 2\COS30031\LAB\ZORKISH\ZORKISH\STATE.CPP|C:\USERS\RUBYB_000\DOCUMENTS\A-UNIVERSITY\2NDYEAR\SEMESTER 2\COS30031\LAB\ZORKISH\ZORKISH\VIEWHALLOFFAME.CPP
C:\USERS\RUBYB_000\DOCUMENTS\A-UNIVERSITY\2NDYEAR\SEMESTER 2\COS30031\LAB\ZORKISH\ZORKISH\DEBUG\VC140.PDB
C:\USERS\RUBYB_000\DOCUMENTS\A-UNIVERSITY\2NDYEAR\SEMESTER 2\COS30031\LAB\ZORKISH\ZORKISH\DEBUG\VC140.IDB
C:\USERS\RUBYB_000\DOCUMENTS\A-UNIVERSITY\2NDYEAR\SEMESTER 2\COS30031\LAB\ZORKISH\ZORKISH\DEBUG\ABOUT.OBJ
C:\USERS\RUBYB_000\DOCUMENTS\A-UNIVERSITY\2NDYEAR\SEMESTER 2\COS30031\LAB\ZORKISH\ZORKISH\DEBUG\HELP.OBJ
C:\USERS\RUBYB_000\DOCUMENTS\A-UNIVERSITY\2NDYEAR\SEMESTER 2\COS30031\LAB\ZORKISH\ZORKISH\DEBUG\NEWHIGHSCORE.OBJ
C:\USERS\RUBYB_000\DOCUMENTS\A-UNIVERSITY\2NDYEAR\SEMESTER 2\COS30031\LAB\ZORKISH\ZORKISH\DEBUG\SELECTADVENTURE.OBJ
C:\USERS\RUBYB_000\DOCUMENTS\A-UNIVERSITY\2NDYEAR\SEMESTER 2\COS30031\LAB\ZORKISH\ZORKISH\DEBUG\VIEWHALLOFFAME.OBJ
C:\USERS\RUBYB_000\DOCUMENTS\A-UNIVERSITY\2NDYEAR\SEMESTER 2\COS30031\LAB\ZORKISH\ZORKISH\DEBUG\GAMEPLAY.OBJ
C:\USERS\RUBYB_000\DOCUMENTS\A-UNIVERSITY\2NDYEAR\SEMESTER 2\COS30031\LAB\ZORKISH\ZORKISH\DEBUG\STATE.OBJ
C:\USERS\RUBYB_000\DOCUMENTS\A-UNIVERSITY\2NDYEAR\SEMESTER 2\COS30031\LAB\ZORKISH\ZORKISH\DEBUG\GAMECONTROLLER.OBJ
^C:\USERS\RUBYB_000\DOCUMENTS\A-UNIVERSITY\2NDYEAR\SEMESTER 2\COS30031\LAB\ZORKISH\ZORKISH\GAMECONTROLLER.CPP
C:\USERS\RUBYB_000\DOCUMENTS\A-UNIVERSITY\2NDYEAR\SEMESTER 2\COS30031\LAB\ZORKISH\ZORKISH\DEBUG\VC140.PDB
C:\USERS\RUBYB_000\DOCUMENTS\A-UNIVERSITY\2NDYEAR\SEMESTER 2\COS30031\LAB\ZORKISH\ZORKISH\DEBUG\VC140.IDB
C:\USERS\RUBYB_000\DOCUMENTS\A-UNIVERSITY\2NDYEAR\SEMESTER 2\COS30031\LAB\ZORKISH\ZORKISH\DEBUG\GAMECONTROLLER.OBJ
^C:\USERS\RUBYB_000\DOCUMENTS\A-UNIVERSITY\2NDYEAR\SEMESTER 2\COS30031\LAB\ZORKISH\ZORKISH\ABOUT.CPP|C:\USERS\RUBYB_000\DOCUMENTS\A-UNIVERSITY\2NDYEAR\SEMESTER 2\COS30031\LAB\ZORKISH\ZORKISH\GAMECONTROLLER.CPP|C:\USERS\RUBYB_000\DOCUMENTS\A-UNIVERSITY\2NDYEAR\SEMESTER 2\COS30031\LAB\ZORKISH\ZORKISH\GAMEPLAY.CPP|C:\USERS\RUBYB_000\DOCUMENTS\A-UNIVERSITY\2NDYEAR\SEMESTER 2\COS30031\LAB\ZORKISH\ZORKISH\HELP.CPP|C:\USERS\RUBYB_000\DOCUMENTS\A-UNIVERSITY\2NDYEAR\SEMESTER 2\COS30031\LAB\ZORKISH\ZORKISH\MAINMENU.CPP|C:\USERS\RUBYB_000\DOCUMENTS\A-UNIVERSITY\2NDYEAR\SEMESTER 2\COS30031\LAB\ZORKISH\ZORKISH\NEWHIGHSCORE.CPP|C:\USERS\RUBYB_000\DOCUMENTS\A-UNIVERSITY\2NDYEAR\SEMESTER 2\COS30031\LAB\ZORKISH\ZORKISH\SELECTADVENTURE.CPP|C:\USERS\RUBYB_000\DOCUMENTS\A-UNIVERSITY\2NDYEAR\SEMESTER 2\COS30031\LAB\ZORKISH\ZORKISH\STATE.CPP|C:\USERS\RUBYB_000\DOCUMENTS\A-UNIVERSITY\2NDYEAR\SEMESTER 2\COS30031\LAB\ZORKISH\ZORKISH\VIEWHALLOFFAME.CPP|C:\USERS\RUBYB_000\DOCUMENTS\A-UNIVERSITY\2NDYEAR\SEMESTER 2\COS30031\LAB\ZORKISH\ZORKISH\ZORKISH.CPP
C:\USERS\RUBYB_000\DOCUMENTS\A-UNIVERSITY\2NDYEAR\SEMESTER 2\COS30031\LAB\ZORKISH\ZORKISH\DEBUG\VC140.PDB
C:\USERS\RUBYB_000\DOCUMENTS\A-UNIVERSITY\2NDYEAR\SEMESTER 2\COS30031\LAB\ZORKISH\ZORKISH\DEBUG\VC140.IDB
C:\USERS\RUBYB_000\DOCUMENTS\A-UNIVERSITY\2NDYEAR\SEMESTER 2\COS30031\LAB\ZORKISH\ZORKISH\DEBUG\ABOUT.OBJ
C:\USERS\RUBYB_000\DOCUMENTS\A-UNIVERSITY\2NDYEAR\SEMESTER 2\COS30031\LAB\ZORKISH\ZORKISH\DEBUG\GAMECONTROLLER.OBJ
C:\USERS\RUBYB_000\DOCUMENTS\A-UNIVERSITY\2NDYEAR\SEMESTER 2\COS30031\LAB\ZORKISH\ZORKISH\DEBUG\GAMEPLAY.OBJ
C:\USERS\RUBYB_000\DOCUMENTS\A-UNIVERSITY\2NDYEAR\SEMESTER 2\COS30031\LAB\ZORKISH\ZORKISH\DEBUG\HELP.OBJ
C:\USERS\RUBYB_000\DOCUMENTS\A-UNIVERSITY\2NDYEAR\SEMESTER 2\COS30031\LAB\ZORKISH\ZORKISH\DEBUG\MAINMENU.OBJ
C:\USERS\RUBYB_000\DOCUMENTS\A-UNIVERSITY\2NDYEAR\SEMESTER 2\COS30031\LAB\ZORKISH\ZORKISH\DEBUG\NEWHIGHSCORE.OBJ
C:\USERS\RUBYB_000\DOCUMENTS\A-UNIVERSITY\2NDYEAR\SEMESTER 2\COS30031\LAB\ZORKISH\ZORKISH\DEBUG\SELECTADVENTURE.OBJ
C:\USERS\RUBYB_000\DOCUMENTS\A-UNIVERSITY\2NDYEAR\SEMESTER 2\COS30031\LAB\ZORKISH\ZORKISH\DEBUG\STATE.OBJ
C:\USERS\RUBYB_000\DOCUMENTS\A-UNIVERSITY\2NDYEAR\SEMESTER 2\COS30031\LAB\ZORKISH\ZORKISH\DEBUG\VIEWHALLOFFAME.OBJ
C:\USERS\RUBYB_000\DOCUMENTS\A-UNIVERSITY\2NDYEAR\SEMESTER 2\COS30031\LAB\ZORKISH\ZORKISH\DEBUG\ZORKISH.OBJ
^C:\USERS\RUBYB_000\DOCUMENTS\A-UNIVERSITY\2NDYEAR\SEMESTER 2\COS30031\LAB\SPIKE6\ZORKISH\ZORKISH\STDAFX.CPP
C:\USERS\RUBYB_000\DOCUMENTS\A-UNIVERSITY\2NDYEAR\SEMESTER 2\COS30031\LAB\SPIKE6\ZORKISH\ZORKISH\DEBUG\ZORKISH.PCH
C:\USERS\RUBYB_000\DOCUMENTS\A-UNIVERSITY\2NDYEAR\SEMESTER 2\COS30031\LAB\SPIKE6\ZORKISH\ZORKISH\DEBUG\VC140.PDB
C:\USERS\RUBYB_000\DOCUMENTS\A-UNIVERSITY\2NDYEAR\SEMESTER 2\COS30031\LAB\SPIKE6\ZORKISH\ZORKISH\DEBUG\VC140.IDB
C:\USERS\RUBYB_000\DOCUMENTS\A-UNIVERSITY\2NDYEAR\SEMESTER 2\COS30031\LAB\SPIKE6\ZORKISH\ZORKISH\DEBUG\STDAFX.OBJ
^C:\USERS\RUBYB_000\DOCUMENTS\A-UNIVERSITY\2NDYEAR\SEMESTER 2\COS30031\LAB\SPIKE6\ZORKISH\ZORKISH\ABOUT.CPP|C:\USERS\RUBYB_000\DOCUMENTS\A-UNIVERSITY\2NDYEAR\SEMESTER 2\COS30031\LAB\SPIKE6\ZORKISH\ZORKISH\GAMECONTROLLER.CPP|C:\USERS\RUBYB_000\DOCUMENTS\A-UNIVERSITY\2NDYEAR\SEMESTER 2\COS30031\LAB\SPIKE6\ZORKISH\ZORKISH\GAMEPLAY.CPP|C:\USERS\RUBYB_000\DOCUMENTS\A-UNIVERSITY\2NDYEAR\SEMESTER 2\COS30031\LAB\SPIKE6\ZORKISH\ZORKISH\HELP.CPP|C:\USERS\RUBYB_000\DOCUMENTS\A-UNIVERSITY\2NDYEAR\SEMESTER 2\COS30031\LAB\SPIKE6\ZORKISH\ZORKISH\MAINMENU.CPP|C:\USERS\RUBYB_000\DOCUMENTS\A-UNIVERSITY\2NDYEAR\SEMESTER 2\COS30031\LAB\SPIKE6\ZORKISH\ZORKISH\NEWHIGHSCORE.CPP|C:\USERS\RUBYB_000\DOCUMENTS\A-UNIVERSITY\2NDYEAR\SEMESTER 2\COS30031\LAB\SPIKE6\ZORKISH\ZORKISH\SELECTADVENTURE.CPP|C:\USERS\RUBYB_000\DOCUMENTS\A-UNIVERSITY\2NDYEAR\SEMESTER 2\COS30031\LAB\SPIKE6\ZORKISH\ZORKISH\STATE.CPP|C:\USERS\RUBYB_000\DOCUMENTS\A-UNIVERSITY\2NDYEAR\SEMESTER 2\COS30031\LAB\SPIKE6\ZORKISH\ZORKISH\VIEWHALLOFFAME.CPP|C:\USERS\RUBYB_000\DOCUMENTS\A-UNIVERSITY\2NDYEAR\SEMESTER 2\COS30031\LAB\SPIKE6\ZORKISH\ZORKISH\ZORKISH.CPP
C:\USERS\RUBYB_000\DOCUMENTS\A-UNIVERSITY\2NDYEAR\SEMESTER 2\COS30031\LAB\SPIKE6\ZORKISH\ZORKISH\DEBUG\VC140.PDB
C:\USERS\RUBYB_000\DOCUMENTS\A-UNIVERSITY\2NDYEAR\SEMESTER 2\COS30031\LAB\SPIKE6\ZORKISH\ZORKISH\DEBUG\VC140.IDB
C:\USERS\RUBYB_000\DOCUMENTS\A-UNIVERSITY\2NDYEAR\SEMESTER 2\COS30031\LAB\SPIKE6\ZORKISH\ZORKISH\DEBUG\ABOUT.OBJ
C:\USERS\RUBYB_000\DOCUMENTS\A-UNIVERSITY\2NDYEAR\SEMESTER 2\COS30031\LAB\SPIKE6\ZORKISH\ZORKISH\DEBUG\GAMECONTROLLER.OBJ
C:\USERS\RUBYB_000\DOCUMENTS\A-UNIVERSITY\2NDYEAR\SEMESTER 2\COS30031\LAB\SPIKE6\ZORKISH\ZORKISH\DEBUG\GAMEPLAY.OBJ
C:\USERS\RUBYB_000\DOCUMENTS\A-UNIVERSITY\2NDYEAR\SEMESTER 2\COS30031\LAB\SPIKE6\ZORKISH\ZORKISH\DEBUG\HELP.OBJ
C:\USERS\RUBYB_000\DOCUMENTS\A-UNIVERSITY\2NDYEAR\SEMESTER 2\COS30031\LAB\SPIKE6\ZORKISH\ZORKISH\DEBUG\MAINMENU.OBJ
C:\USERS\RUBYB_000\DOCUMENTS\A-UNIVERSITY\2NDYEAR\SEMESTER 2\COS30031\LAB\SPIKE6\ZORKISH\ZORKISH\DEBUG\NEWHIGHSCORE.OBJ
C:\USERS\RUBYB_000\DOCUMENTS\A-UNIVERSITY\2NDYEAR\SEMESTER 2\COS30031\LAB\SPIKE6\ZORKISH\ZORKISH\DEBUG\SELECTADVENTURE.OBJ
C:\USERS\RUBYB_000\DOCUMENTS\A-UNIVERSITY\2NDYEAR\SEMESTER 2\COS30031\LAB\SPIKE6\ZORKISH\ZORKISH\DEBUG\STATE.OBJ
C:\USERS\RUBYB_000\DOCUMENTS\A-UNIVERSITY\2NDYEAR\SEMESTER 2\COS30031\LAB\SPIKE6\ZORKISH\ZORKISH\DEBUG\VIEWHALLOFFAME.OBJ
C:\USERS\RUBYB_000\DOCUMENTS\A-UNIVERSITY\2NDYEAR\SEMESTER 2\COS30031\LAB\SPIKE6\ZORKISH\ZORKISH\DEBUG\ZORKISH.OBJ
^C:\USERS\RUBYB_000\DOCUMENTS\A-UNIVERSITY\2NDYEAR\SEMESTER 2\COS30031\LAB\SPIKE6\ZORKISH\ZORKISH\ABOUT.CPP
C:\USERS\RUBYB_000\DOCUMENTS\A-UNIVERSITY\2NDYEAR\SEMESTER 2\COS30031\LAB\SPIKE6\ZORKISH\ZORKISH\DEBUG\VC140.PDB
^C:\USERS\RUBYB_000\DOCUMENTS\A-UNIVERSITY\2NDYEAR\SEMESTER 2\COS30031\LAB\SPIKE6\ZORKISH\ZORKISH\GAMECONTROLLER.CPP
C:\USERS\RUBYB_000\DOCUMENTS\A-UNIVERSITY\2NDYEAR\SEMESTER 2\COS30031\LAB\SPIKE6\ZORKISH\ZORKISH\DEBUG\VC140.PDB
^C:\USERS\RUBYB_000\DOCUMENTS\A-UNIVERSITY\2NDYEAR\SEMESTER 2\COS30031\LAB\SPIKE6\ZORKISH\ZORKISH\GAMEPLAY.CPP
C:\USERS\RUBYB_000\DOCUMENTS\A-UNIVERSITY\2NDYEAR\SEMESTER 2\COS30031\LAB\SPIKE6\ZORKISH\ZORKISH\DEBUG\VC140.PDB
^C:\USERS\RUBYB_000\DOCUMENTS\A-UNIVERSITY\2NDYEAR\SEMESTER 2\COS30031\LAB\SPIKE6\ZORKISH\ZORKISH\HELP.CPP
C:\USERS\RUBYB_000\DOCUMENTS\A-UNIVERSITY\2NDYEAR\SEMESTER 2\COS30031\LAB\SPIKE6\ZORKISH\ZORKISH\DEBUG\VC140.PDB
^C:\USERS\RUBYB_000\DOCUMENTS\A-UNIVERSITY\2NDYEAR\SEMESTER 2\COS30031\LAB\SPIKE6\ZORKISH\ZORKISH\MAINMENU.CPP
C:\USERS\RUBYB_000\DOCUMENTS\A-UNIVERSITY\2NDYEAR\SEMESTER 2\COS30031\LAB\SPIKE6\ZORKISH\ZORKISH\DEBUG\VC140.PDB
^C:\USERS\RUBYB_000\DOCUMENTS\A-UNIVERSITY\2NDYEAR\SEMESTER 2\COS30031\LAB\SPIKE6\ZORKISH\ZORKISH\NEWHIGHSCORE.CPP
C:\USERS\RUBYB_000\DOCUMENTS\A-UNIVERSITY\2NDYEAR\SEMESTER 2\COS30031\LAB\SPIKE6\ZORKISH\ZORKISH\DEBUG\VC140.PDB
^C:\USERS\RUBYB_000\DOCUMENTS\A-UNIVERSITY\2NDYEAR\SEMESTER 2\COS30031\LAB\SPIKE6\ZORKISH\ZORKISH\SELECTADVENTURE.CPP
C:\USERS\RUBYB_000\DOCUMENTS\A-UNIVERSITY\2NDYEAR\SEMESTER 2\COS30031\LAB\SPIKE6\ZORKISH\ZORKISH\DEBUG\VC140.PDB
C:\USERS\RUBYB_000\DOCUMENTS\A-UNIVERSITY\2NDYEAR\SEMESTER 2\COS30031\LAB\SPIKE6\ZORKISH\ZORKISH\DEBUG\VC140.IDB
C:\USERS\RUBYB_000\DOCUMENTS\A-UNIVERSITY\2NDYEAR\SEMESTER 2\COS30031\LAB\SPIKE6\ZORKISH\ZORKISH\DEBUG\SELECTADVENTURE.OBJ
^C:\USERS\RUBYB_000\DOCUMENTS\A-UNIVERSITY\2NDYEAR\SEMESTER 2\COS30031\LAB\SPIKE6\ZORKISH\ZORKISH\STATE.CPP
C:\USERS\RUBYB_000\DOCUMENTS\A-UNIVERSITY\2NDYEAR\SEMESTER 2\COS30031\LAB\SPIKE6\ZORKISH\ZORKISH\DEBUG\VC140.PDB
^C:\USERS\RUBYB_000\DOCUMENTS\A-UNIVERSITY\2NDYEAR\SEMESTER 2\COS30031\LAB\SPIKE6\ZORKISH\ZORKISH\VIEWHALLOFFAME.CPP
C:\USERS\RUBYB_000\DOCUMENTS\A-UNIVERSITY\2NDYEAR\SEMESTER 2\COS30031\LAB\SPIKE6\ZORKISH\ZORKISH\DEBUG\VC140.PDB
^C:\USERS\RUBYB_000\DOCUMENTS\A-UNIVERSITY\2NDYEAR\SEMESTER 2\COS30031\LAB\SPIKE6\ZORKISH\ZORKISH\ZORKISH.CPP
C:\USERS\RUBYB_000\DOCUMENTS\A-UNIVERSITY\2NDYEAR\SEMESTER 2\COS30031\LAB\SPIKE6\ZORKISH\ZORKISH\DEBUG\VC140.PDB
C:\USERS\RUBYB_000\DOCUMENTS\A-UNIVERSITY\2NDYEAR\SEMESTER 2\COS30031\LAB\SPIKE6\ZORKISH\ZORKISH\DEBUG\VC140.IDB
C:\USERS\RUBYB_000\DOCUMENTS\A-UNIVERSITY\2NDYEAR\SEMESTER 2\COS30031\LAB\SPIKE6\ZORKISH\ZORKISH\DEBUG\ZORKISH.OBJ
^C:\USERS\RUBYB_000\DOCUMENTS\A-UNIVERSITY\2NDYEAR\SEMESTER 2\COS30031\LAB\SPIKE6\ZORKISH\ZORKISH\GAMEOBJECT.CPP|C:\USERS\RUBYB_000\DOCUMENTS\A-UNIVERSITY\2NDYEAR\SEMESTER 2\COS30031\LAB\SPIKE6\ZORKISH\ZORKISH\IDENTIFIABLEOBJECT.CPP|C:\USERS\RUBYB_000\DOCUMENTS\A-UNIVERSITY\2NDYEAR\SEMESTER 2\COS30031\LAB\SPIKE6\ZORKISH\ZORKISH\IHAVEINVENTORY.CPP|C:\USERS\RUBYB_000\DOCUMENTS\A-UNIVERSITY\2NDYEAR\SEMESTER 2\COS30031\LAB\SPIKE6\ZORKISH\ZORKISH\INVENTORY.CPP|C:\USERS\RUBYB_000\DOCUMENTS\A-UNIVERSITY\2NDYEAR\SEMESTER 2\COS30031\LAB\SPIKE6\ZORKISH\ZORKISH\ITEM.CPP|C:\USERS\RUBYB_000\DOCUMENTS\A-UNIVERSITY\2NDYEAR\SEMESTER 2\COS30031\LAB\SPIKE6\ZORKISH\ZORKISH\PLAYER.CPP
C:\USERS\RUBYB_000\DOCUMENTS\A-UNIVERSITY\2NDYEAR\SEMESTER 2\COS30031\LAB\SPIKE6\ZORKISH\ZORKISH\DEBUG\VC140.PDB
C:\USERS\RUBYB_000\DOCUMENTS\A-UNIVERSITY\2NDYEAR\SEMESTER 2\COS30031\LAB\SPIKE6\ZORKISH\ZORKISH\DEBUG\VC140.IDB
C:\USERS\RUBYB_000\DOCUMENTS\A-UNIVERSITY\2NDYEAR\SEMESTER 2\COS30031\LAB\SPIKE6\ZORKISH\ZORKISH\DEBUG\PLAYER.OBJ
^C:\USERS\RUBYB_000\DOCUMENTS\A-UNIVERSITY\2NDYEAR\SEMESTER 2\COS30031\LAB\SPIKE6\ZORKISH\ZORKISH\GAMEOBJECT.CPP
C:\USERS\RUBYB_000\DOCUMENTS\A-UNIVERSITY\2NDYEAR\SEMESTER 2\COS30031\LAB\SPIKE6\ZORKISH\ZORKISH\DEBUG\VC140.PDB
^C:\USERS\RUBYB_000\DOCUMENTS\A-UNIVERSITY\2NDYEAR\SEMESTER 2\COS30031\LAB\SPIKE6\ZORKISH\ZORKISH\IDENTIFIABLEOBJECT.CPP
C:\USERS\RUBYB_000\DOCUMENTS\A-UNIVERSITY\2NDYEAR\SEMESTER 2\COS30031\LAB\SPIKE6\ZORKISH\ZORKISH\DEBUG\VC140.PDB
^C:\USERS\RUBYB_000\DOCUMENTS\A-UNIVERSITY\2NDYEAR\SEMESTER 2\COS30031\LAB\SPIKE6\ZORKISH\ZORKISH\IHAVEINVENTORY.CPP
C:\USERS\RUBYB_000\DOCUMENTS\A-UNIVERSITY\2NDYEAR\SEMESTER 2\COS30031\LAB\SPIKE6\ZORKISH\ZORKISH\DEBUG\VC140.PDB
C:\USERS\RUBYB_000\DOCUMENTS\A-UNIVERSITY\2NDYEAR\SEMESTER 2\COS30031\LAB\SPIKE6\ZORKISH\ZORKISH\DEBUG\VC140.IDB
C:\USERS\RUBYB_000\DOCUMENTS\A-UNIVERSITY\2NDYEAR\SEMESTER 2\COS30031\LAB\SPIKE6\ZORKISH\ZORKISH\DEBUG\IHAVEINVENTORY.OBJ
^C:\USERS\RUBYB_000\DOCUMENTS\A-UNIVERSITY\2NDYEAR\SEMESTER 2\COS30031\LAB\SPIKE6\ZORKISH\ZORKISH\INVENTORY.CPP
C:\USERS\RUBYB_000\DOCUMENTS\A-UNIVERSITY\2NDYEAR\SEMESTER 2\COS30031\LAB\SPIKE6\ZORKISH\ZORKISH\DEBUG\VC140.PDB
C:\USERS\RUBYB_000\DOCUMENTS\A-UNIVERSITY\2NDYEAR\SEMESTER 2\COS30031\LAB\SPIKE6\ZORKISH\ZORKISH\DEBUG\VC140.IDB
C:\USERS\RUBYB_000\DOCUMENTS\A-UNIVERSITY\2NDYEAR\SEMESTER 2\COS30031\LAB\SPIKE6\ZORKISH\ZORKISH\DEBUG\INVENTORY.OBJ
^C:\USERS\RUBYB_000\DOCUMENTS\A-UNIVERSITY\2NDYEAR\SEMESTER 2\COS30031\LAB\SPIKE6\ZORKISH\ZORKISH\ITEM.CPP
C:\USERS\RUBYB_000\DOCUMENTS\A-UNIVERSITY\2NDYEAR\SEMESTER 2\COS30031\LAB\SPIKE6\ZORKISH\ZORKISH\DEBUG\VC140.PDB
^C:\USERS\RUBYB_000\DOCUMENTS\A-UNIVERSITY\2NDYEAR\SEMESTER 2\COS30031\LAB\SPIKE6\ZORKISH\ZORKISH\PLAYER.CPP
C:\USERS\RUBYB_000\DOCUMENTS\A-UNIVERSITY\2NDYEAR\SEMESTER 2\COS30031\LAB\SPIKE6\ZORKISH\ZORKISH\DEBUG\VC140.PDB
^C:\USERS\RUBYB_000\DOCUMENTS\A-UNIVERSITY\2NDYEAR\SEMESTER 2\COS30031\LAB\SPIKE6\ZORKISH\ZORKISH\GAMEOBJECT.CPP|C:\USERS\RUBYB_000\DOCUMENTS\A-UNIVERSITY\2NDYEAR\SEMESTER 2\COS30031\LAB\SPIKE6\ZORKISH\ZORKISH\IDENTIFIABLEOBJECT.CPP|C:\USERS\RUBYB_000\DOCUMENTS\A-UNIVERSITY\2NDYEAR\SEMESTER 2\COS30031\LAB\SPIKE6\ZORKISH\ZORKISH\IHAVEINVENTORY.CPP|C:\USERS\RUBYB_000\DOCUMENTS\A-UNIVERSITY\2NDYEAR\SEMESTER 2\COS30031\LAB\SPIKE6\ZORKISH\ZORKISH\INVENTORY.CPP|C:\USERS\RUBYB_000\DOCUMENTS\A-UNIVERSITY\2NDYEAR\SEMESTER 2\COS30031\LAB\SPIKE6\ZORKISH\ZORKISH\ITEM.CPP
C:\USERS\RUBYB_000\DOCUMENTS\A-UNIVERSITY\2NDYEAR\SEMESTER 2\COS30031\LAB\SPIKE6\ZORKISH\ZORKISH\DEBUG\VC140.PDB
C:\USERS\RUBYB_000\DOCUMENTS\A-UNIVERSITY\2NDYEAR\SEMESTER 2\COS30031\LAB\SPIKE6\ZORKISH\ZORKISH\DEBUG\VC140.IDB
C:\USERS\RUBYB_000\DOCUMENTS\A-UNIVERSITY\2NDYEAR\SEMESTER 2\COS30031\LAB\SPIKE6\ZORKISH\ZORKISH\DEBUG\ITEM.OBJ
^C:\USERS\RUBYB_000\DOCUMENTS\A-UNIVERSITY\2NDYEAR\SEMESTER 2\COS30031\LAB\SPIKE6\ZORKISH\ZORKISH\GAMEOBJECT.CPP|C:\USERS\RUBYB_000\DOCUMENTS\A-UNIVERSITY\2NDYEAR\SEMESTER 2\COS30031\LAB\SPIKE6\ZORKISH\ZORKISH\IDENTIFIABLEOBJECT.CPP|C:\USERS\RUBYB_000\DOCUMENTS\A-UNIVERSITY\2NDYEAR\SEMESTER 2\COS30031\LAB\SPIKE6\ZORKISH\ZORKISH\IHAVEINVENTORY.CPP|C:\USERS\RUBYB_000\DOCUMENTS\A-UNIVERSITY\2NDYEAR\SEMESTER 2\COS30031\LAB\SPIKE6\ZORKISH\ZORKISH\INVENTORY.CPP
C:\USERS\RUBYB_000\DOCUMENTS\A-UNIVERSITY\2NDYEAR\SEMESTER 2\COS30031\LAB\SPIKE6\ZORKISH\ZORKISH\DEBUG\VC140.PDB
C:\USERS\RUBYB_000\DOCUMENTS\A-UNIVERSITY\2NDYEAR\SEMESTER 2\COS30031\LAB\SPIKE6\ZORKISH\ZORKISH\DEBUG\VC140.IDB
C:\USERS\RUBYB_000\DOCUMENTS\A-UNIVERSITY\2NDYEAR\SEMESTER 2\COS30031\LAB\SPIKE6\ZORKISH\ZORKISH\DEBUG\INVENTORY.OBJ
^C:\USERS\RUBYB_000\DOCUMENTS\A-UNIVERSITY\2NDYEAR\SEMESTER 2\COS30031\LAB\SPIKE6\ZORKISH\ZORKISH\GAMEOBJECT.CPP|C:\USERS\RUBYB_000\DOCUMENTS\A-UNIVERSITY\2NDYEAR\SEMESTER 2\COS30031\LAB\SPIKE6\ZORKISH\ZORKISH\IDENTIFIABLEOBJECT.CPP|C:\USERS\RUBYB_000\DOCUMENTS\A-UNIVERSITY\2NDYEAR\SEMESTER 2\COS30031\LAB\SPIKE6\ZORKISH\ZORKISH\IHAVEINVENTORY.CPP
C:\USERS\RUBYB_000\DOCUMENTS\A-UNIVERSITY\2NDYEAR\SEMESTER 2\COS30031\LAB\SPIKE6\ZORKISH\ZORKISH\DEBUG\VC140.PDB
C:\USERS\RUBYB_000\DOCUMENTS\A-UNIVERSITY\2NDYEAR\SEMESTER 2\COS30031\LAB\SPIKE6\ZORKISH\ZORKISH\DEBUG\VC140.IDB
C:\USERS\RUBYB_000\DOCUMENTS\A-UNIVERSITY\2NDYEAR\SEMESTER 2\COS30031\LAB\SPIKE6\ZORKISH\ZORKISH\DEBUG\GAMEOBJECT.OBJ
^C:\USERS\RUBYB_000\DOCUMENTS\A-UNIVERSITY\2NDYEAR\SEMESTER 2\COS30031\LAB\SPIKE6\ZORKISH\ZORKISH\IDENTIFIABLEOBJECT.CPP|C:\USERS\RUBYB_000\DOCUMENTS\A-UNIVERSITY\2NDYEAR\SEMESTER 2\COS30031\LAB\SPIKE6\ZORKISH\ZORKISH\IHAVEINVENTORY.CPP
C:\USERS\RUBYB_000\DOCUMENTS\A-UNIVERSITY\2NDYEAR\SEMESTER 2\COS30031\LAB\SPIKE6\ZORKISH\ZORKISH\DEBUG\VC140.PDB
C:\USERS\RUBYB_000\DOCUMENTS\A-UNIVERSITY\2NDYEAR\SEMESTER 2\COS30031\LAB\SPIKE6\ZORKISH\ZORKISH\DEBUG\VC140.IDB
C:\USERS\RUBYB_000\DOCUMENTS\A-UNIVERSITY\2NDYEAR\SEMESTER 2\COS30031\LAB\SPIKE6\ZORKISH\ZORKISH\DEBUG\IDENTIFIABLEOBJECT.OBJ
^C:\USERS\RUBYB_000\DOCUMENTS\A-UNIVERSITY\2NDYEAR\SEMESTER 2\COS30031\LAB\SPIKE7\ZORKISH\ZORKISH\STDAFX.CPP
C:\USERS\RUBYB_000\DOCUMENTS\A-UNIVERSITY\2NDYEAR\SEMESTER 2\COS30031\LAB\SPIKE7\ZORKISH\ZORKISH\DEBUG\ZORKISH.PCH
C:\USERS\RUBYB_000\DOCUMENTS\A-UNIVERSITY\2NDYEAR\SEMESTER 2\COS30031\LAB\SPIKE7\ZORKISH\ZORKISH\DEBUG\VC140.PDB
C:\USERS\RUBYB_000\DOCUMENTS\A-UNIVERSITY\2NDYEAR\SEMESTER 2\COS30031\LAB\SPIKE7\ZORKISH\ZORKISH\DEBUG\VC140.IDB
C:\USERS\RUBYB_000\DOCUMENTS\A-UNIVERSITY\2NDYEAR\SEMESTER 2\COS30031\LAB\SPIKE7\ZORKISH\ZORKISH\DEBUG\STDAFX.OBJ
^C:\USERS\RUBYB_000\DOCUMENTS\A-UNIVERSITY\2NDYEAR\SEMESTER 2\COS30031\LAB\SPIKE7\ZORKISH\ZORKISH\ABOUT.CPP|C:\USERS\RUBYB_000\DOCUMENTS\A-UNIVERSITY\2NDYEAR\SEMESTER 2\COS30031\LAB\SPIKE7\ZORKISH\ZORKISH\GAMECONTROLLER.CPP|C:\USERS\RUBYB_000\DOCUMENTS\A-UNIVERSITY\2NDYEAR\SEMESTER 2\COS30031\LAB\SPIKE7\ZORKISH\ZORKISH\GAMEOBJECT.CPP|C:\USERS\RUBYB_000\DOCUMENTS\A-UNIVERSITY\2NDYEAR\SEMESTER 2\COS30031\LAB\SPIKE7\ZORKISH\ZORKISH\GAMEPLAY.CPP|C:\USERS\RUBYB_000\DOCUMENTS\A-UNIVERSITY\2NDYEAR\SEMESTER 2\COS30031\LAB\SPIKE7\ZORKISH\ZORKISH\HELP.CPP|C:\USERS\RUBYB_000\DOCUMENTS\A-UNIVERSITY\2NDYEAR\SEMESTER 2\COS30031\LAB\SPIKE7\ZORKISH\ZORKISH\IDENTIFIABLEOBJECT.CPP|C:\USERS\RUBYB_000\DOCUMENTS\A-UNIVERSITY\2NDYEAR\SEMESTER 2\COS30031\LAB\SPIKE7\ZORKISH\ZORKISH\IHAVEINVENTORY.CPP|C:\USERS\RUBYB_000\DOCUMENTS\A-UNIVERSITY\2NDYEAR\SEMESTER 2\COS30031\LAB\SPIKE7\ZORKISH\ZORKISH\INVENTORY.CPP|C:\USERS\RUBYB_000\DOCUMENTS\A-UNIVERSITY\2NDYEAR\SEMESTER 2\COS30031\LAB\SPIKE7\ZORKISH\ZORKISH\ITEM.CPP|C:\USERS\RUBYB_000\DOCUMENTS\A-UNIVERSITY\2NDYEAR\SEMESTER 2\COS30031\LAB\SPIKE7\ZORKISH\ZORKISH\MAINMENU.CPP|C:\USERS\RUBYB_000\DOCUMENTS\A-UNIVERSITY\2NDYEAR\SEMESTER 2\COS30031\LAB\SPIKE7\ZORKISH\ZORKISH\NEWHIGHSCORE.CPP|C:\USERS\RUBYB_000\DOCUMENTS\A-UNIVERSITY\2NDYEAR\SEMESTER 2\COS30031\LAB\SPIKE7\ZORKISH\ZORKISH\PLAYER.CPP|C:\USERS\RUBYB_000\DOCUMENTS\A-UNIVERSITY\2NDYEAR\SEMESTER 2\COS30031\LAB\SPIKE7\ZORKISH\ZORKISH\SELECTADVENTURE.CPP|C:\USERS\RUBYB_000\DOCUMENTS\A-UNIVERSITY\2NDYEAR\SEMESTER 2\COS30031\LAB\SPIKE7\ZORKISH\ZORKISH\STATE.CPP|C:\USERS\RUBYB_000\DOCUMENTS\A-UNIVERSITY\2NDYEAR\SEMESTER 2\COS30031\LAB\SPIKE7\ZORKISH\ZORKISH\VIEWHALLOFFAME.CPP|C:\USERS\RUBYB_000\DOCUMENTS\A-UNIVERSITY\2NDYEAR\SEMESTER 2\COS30031\LAB\SPIKE7\ZORKISH\ZORKISH\ZORKISH.CPP
C:\USERS\RUBYB_000\DOCUMENTS\A-UNIVERSITY\2NDYEAR\SEMESTER 2\COS30031\LAB\SPIKE7\ZORKISH\ZORKISH\DEBUG\VC140.PDB
C:\USERS\RUBYB_000\DOCUMENTS\A-UNIVERSITY\2NDYEAR\SEMESTER 2\COS30031\LAB\SPIKE7\ZORKISH\ZORKISH\DEBUG\VC140.IDB
C:\USERS\RUBYB_000\DOCUMENTS\A-UNIVERSITY\2NDYEAR\SEMESTER 2\COS30031\LAB\SPIKE7\ZORKISH\ZORKISH\DEBUG\ABOUT.OBJ
C:\USERS\RUBYB_000\DOCUMENTS\A-UNIVERSITY\2NDYEAR\SEMESTER 2\COS30031\LAB\SPIKE7\ZORKISH\ZORKISH\DEBUG\GAMECONTROLLER.OBJ
C:\USERS\RUBYB_000\DOCUMENTS\A-UNIVERSITY\2NDYEAR\SEMESTER 2\COS30031\LAB\SPIKE7\ZORKISH\ZORKISH\DEBUG\GAMEOBJECT.OBJ
C:\USERS\RUBYB_000\DOCUMENTS\A-UNIVERSITY\2NDYEAR\SEMESTER 2\COS30031\LAB\SPIKE7\ZORKISH\ZORKISH\DEBUG\GAMEPLAY.OBJ
C:\USERS\RUBYB_000\DOCUMENTS\A-UNIVERSITY\2NDYEAR\SEMESTER 2\COS30031\LAB\SPIKE7\ZORKISH\ZORKISH\DEBUG\HELP.OBJ
C:\USERS\RUBYB_000\DOCUMENTS\A-UNIVERSITY\2NDYEAR\SEMESTER 2\COS30031\LAB\SPIKE7\ZORKISH\ZORKISH\DEBUG\IDENTIFIABLEOBJECT.OBJ
C:\USERS\RUBYB_000\DOCUMENTS\A-UNIVERSITY\2NDYEAR\SEMESTER 2\COS30031\LAB\SPIKE7\ZORKISH\ZORKISH\DEBUG\IHAVEINVENTORY.OBJ
C:\USERS\RUBYB_000\DOCUMENTS\A-UNIVERSITY\2NDYEAR\SEMESTER 2\COS30031\LAB\SPIKE7\ZORKISH\ZORKISH\DEBUG\INVENTORY.OBJ
C:\USERS\RUBYB_000\DOCUMENTS\A-UNIVERSITY\2NDYEAR\SEMESTER 2\COS30031\LAB\SPIKE7\ZORKISH\ZORKISH\DEBUG\ITEM.OBJ
C:\USERS\RUBYB_000\DOCUMENTS\A-UNIVERSITY\2NDYEAR\SEMESTER 2\COS30031\LAB\SPIKE7\ZORKISH\ZORKISH\DEBUG\MAINMENU.OBJ
C:\USERS\RUBYB_000\DOCUMENTS\A-UNIVERSITY\2NDYEAR\SEMESTER 2\COS30031\LAB\SPIKE7\ZORKISH\ZORKISH\DEBUG\NEWHIGHSCORE.OBJ
C:\USERS\RUBYB_000\DOCUMENTS\A-UNIVERSITY\2NDYEAR\SEMESTER 2\COS30031\LAB\SPIKE7\ZORKISH\ZORKISH\DEBUG\PLAYER.OBJ
C:\USERS\RUBYB_000\DOCUMENTS\A-UNIVERSITY\2NDYEAR\SEMESTER 2\COS30031\LAB\SPIKE7\ZORKISH\ZORKISH\DEBUG\SELECTADVENTURE.OBJ
C:\USERS\RUBYB_000\DOCUMENTS\A-UNIVERSITY\2NDYEAR\SEMESTER 2\COS30031\LAB\SPIKE7\ZORKISH\ZORKISH\DEBUG\STATE.OBJ
C:\USERS\RUBYB_000\DOCUMENTS\A-UNIVERSITY\2NDYEAR\SEMESTER 2\COS30031\LAB\SPIKE7\ZORKISH\ZORKISH\DEBUG\VIEWHALLOFFAME.OBJ
C:\USERS\RUBYB_000\DOCUMENTS\A-UNIVERSITY\2NDYEAR\SEMESTER 2\COS30031\LAB\SPIKE7\ZORKISH\ZORKISH\DEBUG\ZORKISH.OBJ
^C:\USERS\RUBYB_000\DOCUMENTS\A-UNIVERSITY\2NDYEAR\SEMESTER 2\COS30031\LAB\SPIKE7\ZORKISH\ZORKISH\ABOUT.CPP
C:\USERS\RUBYB_000\DOCUMENTS\A-UNIVERSITY\2NDYEAR\SEMESTER 2\COS30031\LAB\SPIKE7\ZORKISH\ZORKISH\DEBUG\VC140.PDB
^C:\USERS\RUBYB_000\DOCUMENTS\A-UNIVERSITY\2NDYEAR\SEMESTER 2\COS30031\LAB\SPIKE7\ZORKISH\ZORKISH\GAMECONTROLLER.CPP
C:\USERS\RUBYB_000\DOCUMENTS\A-UNIVERSITY\2NDYEAR\SEMESTER 2\COS30031\LAB\SPIKE7\ZORKISH\ZORKISH\DEBUG\VC140.PDB
^C:\USERS\RUBYB_000\DOCUMENTS\A-UNIVERSITY\2NDYEAR\SEMESTER 2\COS30031\LAB\SPIKE7\ZORKISH\ZORKISH\GAMEOBJECT.CPP
C:\USERS\RUBYB_000\DOCUMENTS\A-UNIVERSITY\2NDYEAR\SEMESTER 2\COS30031\LAB\SPIKE7\ZORKISH\ZORKISH\DEBUG\VC140.PDB
^C:\USERS\RUBYB_000\DOCUMENTS\A-UNIVERSITY\2NDYEAR\SEMESTER 2\COS30031\LAB\SPIKE7\ZORKISH\ZORKISH\GAMEPLAY.CPP
C:\USERS\RUBYB_000\DOCUMENTS\A-UNIVERSITY\2NDYEAR\SEMESTER 2\COS30031\LAB\SPIKE7\ZORKISH\ZORKISH\DEBUG\VC140.PDB
C:\USERS\RUBYB_000\DOCUMENTS\A-UNIVERSITY\2NDYEAR\SEMESTER 2\COS30031\LAB\SPIKE7\ZORKISH\ZORKISH\DEBUG\VC140.IDB
C:\USERS\RUBYB_000\DOCUMENTS\A-UNIVERSITY\2NDYEAR\SEMESTER 2\COS30031\LAB\SPIKE7\ZORKISH\ZORKISH\DEBUG\GAMEPLAY.OBJ
^C:\USERS\RUBYB_000\DOCUMENTS\A-UNIVERSITY\2NDYEAR\SEMESTER 2\COS30031\LAB\SPIKE7\ZORKISH\ZORKISH\HELP.CPP
C:\USERS\RUBYB_000\DOCUMENTS\A-UNIVERSITY\2NDYEAR\SEMESTER 2\COS30031\LAB\SPIKE7\ZORKISH\ZORKISH\DEBUG\VC140.PDB
^C:\USERS\RUBYB_000\DOCUMENTS\A-UNIVERSITY\2NDYEAR\SEMESTER 2\COS30031\LAB\SPIKE7\ZORKISH\ZORKISH\IDENTIFIABLEOBJECT.CPP
C:\USERS\RUBYB_000\DOCUMENTS\A-UNIVERSITY\2NDYEAR\SEMESTER 2\COS30031\LAB\SPIKE7\ZORKISH\ZORKISH\DEBUG\VC140.PDB
^C:\USERS\RUBYB_000\DOCUMENTS\A-UNIVERSITY\2NDYEAR\SEMESTER 2\COS30031\LAB\SPIKE7\ZORKISH\ZORKISH\IHAVEINVENTORY.CPP
C:\USERS\RUBYB_000\DOCUMENTS\A-UNIVERSITY\2NDYEAR\SEMESTER 2\COS30031\LAB\SPIKE7\ZORKISH\ZORKISH\DEBUG\VC140.PDB
^C:\USERS\RUBYB_000\DOCUMENTS\A-UNIVERSITY\2NDYEAR\SEMESTER 2\COS30031\LAB\SPIKE7\ZORKISH\ZORKISH\INVENTORY.CPP
C:\USERS\RUBYB_000\DOCUMENTS\A-UNIVERSITY\2NDYEAR\SEMESTER 2\COS30031\LAB\SPIKE7\ZORKISH\ZORKISH\DEBUG\VC140.PDB
^C:\USERS\RUBYB_000\DOCUMENTS\A-UNIVERSITY\2NDYEAR\SEMESTER 2\COS30031\LAB\SPIKE7\ZORKISH\ZORKISH\ITEM.CPP
C:\USERS\RUBYB_000\DOCUMENTS\A-UNIVERSITY\2NDYEAR\SEMESTER 2\COS30031\LAB\SPIKE7\ZORKISH\ZORKISH\DEBUG\VC140.PDB
^C:\USERS\RUBYB_000\DOCUMENTS\A-UNIVERSITY\2NDYEAR\SEMESTER 2\COS30031\LAB\SPIKE7\ZORKISH\ZORKISH\MAINMENU.CPP
C:\USERS\RUBYB_000\DOCUMENTS\A-UNIVERSITY\2NDYEAR\SEMESTER 2\COS30031\LAB\SPIKE7\ZORKISH\ZORKISH\DEBUG\VC140.PDB
^C:\USERS\RUBYB_000\DOCUMENTS\A-UNIVERSITY\2NDYEAR\SEMESTER 2\COS30031\LAB\SPIKE7\ZORKISH\ZORKISH\NEWHIGHSCORE.CPP
C:\USERS\RUBYB_000\DOCUMENTS\A-UNIVERSITY\2NDYEAR\SEMESTER 2\COS30031\LAB\SPIKE7\ZORKISH\ZORKISH\DEBUG\VC140.PDB
^C:\USERS\RUBYB_000\DOCUMENTS\A-UNIVERSITY\2NDYEAR\SEMESTER 2\COS30031\LAB\SPIKE7\ZORKISH\ZORKISH\PLAYER.CPP
C:\USERS\RUBYB_000\DOCUMENTS\A-UNIVERSITY\2NDYEAR\SEMESTER 2\COS30031\LAB\SPIKE7\ZORKISH\ZORKISH\DEBUG\VC140.PDB
C:\USERS\RUBYB_000\DOCUMENTS\A-UNIVERSITY\2NDYEAR\SEMESTER 2\COS30031\LAB\SPIKE7\ZORKISH\ZORKISH\DEBUG\VC140.IDB
C:\USERS\RUBYB_000\DOCUMENTS\A-UNIVERSITY\2NDYEAR\SEMESTER 2\COS30031\LAB\SPIKE7\ZORKISH\ZORKISH\DEBUG\PLAYER.OBJ
^C:\USERS\RUBYB_000\DOCUMENTS\A-UNIVERSITY\2NDYEAR\SEMESTER 2\COS30031\LAB\SPIKE7\ZORKISH\ZORKISH\SELECTADVENTURE.CPP
C:\USERS\RUBYB_000\DOCUMENTS\A-UNIVERSITY\2NDYEAR\SEMESTER 2\COS30031\LAB\SPIKE7\ZORKISH\ZORKISH\DEBUG\VC140.PDB
^C:\USERS\RUBYB_000\DOCUMENTS\A-UNIVERSITY\2NDYEAR\SEMESTER 2\COS30031\LAB\SPIKE7\ZORKISH\ZORKISH\STATE.CPP
C:\USERS\RUBYB_000\DOCUMENTS\A-UNIVERSITY\2NDYEAR\SEMESTER 2\COS30031\LAB\SPIKE7\ZORKISH\ZORKISH\DEBUG\VC140.PDB
^C:\USERS\RUBYB_000\DOCUMENTS\A-UNIVERSITY\2NDYEAR\SEMESTER 2\COS30031\LAB\SPIKE7\ZORKISH\ZORKISH\VIEWHALLOFFAME.CPP
C:\USERS\RUBYB_000\DOCUMENTS\A-UNIVERSITY\2NDYEAR\SEMESTER 2\COS30031\LAB\SPIKE7\ZORKISH\ZORKISH\DEBUG\VC140.PDB
^C:\USERS\RUBYB_000\DOCUMENTS\A-UNIVERSITY\2NDYEAR\SEMESTER 2\COS30031\LAB\SPIKE7\ZORKISH\ZORKISH\ZORKISH.CPP
C:\USERS\RUBYB_000\DOCUMENTS\A-UNIVERSITY\2NDYEAR\SEMESTER 2\COS30031\LAB\SPIKE7\ZORKISH\ZORKISH\DEBUG\VC140.PDB
C:\USERS\RUBYB_000\DOCUMENTS\A-UNIVERSITY\2NDYEAR\SEMESTER 2\COS30031\LAB\SPIKE7\ZORKISH\ZORKISH\DEBUG\VC140.IDB
C:\USERS\RUBYB_000\DOCUMENTS\A-UNIVERSITY\2NDYEAR\SEMESTER 2\COS30031\LAB\SPIKE7\ZORKISH\ZORKISH\DEBUG\ZORKISH.OBJ
^C:\USERS\RUBYB_000\DOCUMENTS\A-UNIVERSITY\2NDYEAR\SEMESTER 2\COS30031\LAB\SPIKE7\ZORKISH\ZORKISH\LOCATION.CPP|C:\USERS\RUBYB_000\DOCUMENTS\A-UNIVERSITY\2NDYEAR\SEMESTER 2\COS30031\LAB\SPIKE7\ZORKISH\ZORKISH\PATH.CPP
C:\USERS\RUBYB_000\DOCUMENTS\A-UNIVERSITY\2NDYEAR\SEMESTER 2\COS30031\LAB\SPIKE7\ZORKISH\ZORKISH\DEBUG\VC140.PDB
C:\USERS\RUBYB_000\DOCUMENTS\A-UNIVERSITY\2NDYEAR\SEMESTER 2\COS30031\LAB\SPIKE7\ZORKISH\ZORKISH\DEBUG\VC140.IDB
C:\USERS\RUBYB_000\DOCUMENTS\A-UNIVERSITY\2NDYEAR\SEMESTER 2\COS30031\LAB\SPIKE7\ZORKISH\ZORKISH\DEBUG\LOCATION.OBJ
C:\USERS\RUBYB_000\DOCUMENTS\A-UNIVERSITY\2NDYEAR\SEMESTER 2\COS30031\LAB\SPIKE7\ZORKISH\ZORKISH\DEBUG\PATH.OBJ
^C:\USERS\RUBYB_000\DOCUMENTS\A-UNIVERSITY\2NDYEAR\SEMESTER 2\COS30031\LAB\SPIKE7\ZORKISH\ZORKISH\LOCATION.CPP
C:\USERS\RUBYB_000\DOCUMENTS\A-UNIVERSITY\2NDYEAR\SEMESTER 2\COS30031\LAB\SPIKE7\ZORKISH\ZORKISH\DEBUG\VC140.PDB
C:\USERS\RUBYB_000\DOCUMENTS\A-UNIVERSITY\2NDYEAR\SEMESTER 2\COS30031\LAB\SPIKE7\ZORKISH\ZORKISH\DEBUG\VC140.IDB
C:\USERS\RUBYB_000\DOCUMENTS\A-UNIVERSITY\2NDYEAR\SEMESTER 2\COS30031\LAB\SPIKE7\ZORKISH\ZORKISH\DEBUG\LOCATION.OBJ
^C:\USERS\RUBYB_000\DOCUMENTS\A-UNIVERSITY\2NDYEAR\SEMESTER 2\COS30031\LAB\SPIKE7\ZORKISH\ZORKISH\PATH.CPP
C:\USERS\RUBYB_000\DOCUMENTS\A-UNIVERSITY\2NDYEAR\SEMESTER 2\COS30031\LAB\SPIKE7\ZORKISH\ZORKISH\DEBUG\VC140.PDB
^C:\USERS\RUBYB_000\DOCUMENTS\A-UNIVERSITY\2NDYEAR\SEMESTER 2\COS30031\LAB\SPIKE7\ZORKISH\ZORKISH\LOCATION.CPP|C:\USERS\RUBYB_000\DOCUMENTS\A-UNIVERSITY\2NDYEAR\SEMESTER 2\COS30031\LAB\SPIKE7\ZORKISH\ZORKISH\PATH.CPP|C:\USERS\RUBYB_000\DOCUMENTS\A-UNIVERSITY\2NDYEAR\SEMESTER 2\COS30031\LAB\SPIKE7\ZORKISH\ZORKISH\SELECTADVENTURE.CPP
C:\USERS\RUBYB_000\DOCUMENTS\A-UNIVERSITY\2NDYEAR\SEMESTER 2\COS30031\LAB\SPIKE7\ZORKISH\ZORKISH\DEBUG\VC140.PDB
C:\USERS\RUBYB_000\DOCUMENTS\A-UNIVERSITY\2NDYEAR\SEMESTER 2\COS30031\LAB\SPIKE7\ZORKISH\ZORKISH\DEBUG\VC140.IDB
C:\USERS\RUBYB_000\DOCUMENTS\A-UNIVERSITY\2NDYEAR\SEMESTER 2\COS30031\LAB\SPIKE7\ZORKISH\ZORKISH\DEBUG\PATH.OBJ
C:\USERS\RUBYB_000\DOCUMENTS\A-UNIVERSITY\2NDYEAR\SEMESTER 2\COS30031\LAB\SPIKE7\ZORKISH\ZORKISH\DEBUG\SELECTADVENTURE.OBJ
^C:\USERS\RUBYB_000\DOCUMENTS\A-UNIVERSITY\2NDYEAR\SEMESTER 2\COS30031\LAB\SPIKE7\ZORKISH\ZORKISH\PLAYER.CPP|C:\USERS\RUBYB_000\DOCUMENTS\A-UNIVERSITY\2NDYEAR\SEMESTER 2\COS30031\LAB\SPIKE7\ZORKISH\ZORKISH\ZORKISH.CPP
C:\USERS\RUBYB_000\DOCUMENTS\A-UNIVERSITY\2NDYEAR\SEMESTER 2\COS30031\LAB\SPIKE7\ZORKISH\ZORKISH\DEBUG\VC140.PDB
C:\USERS\RUBYB_000\DOCUMENTS\A-UNIVERSITY\2NDYEAR\SEMESTER 2\COS30031\LAB\SPIKE7\ZORKISH\ZORKISH\DEBUG\VC140.IDB
C:\USERS\RUBYB_000\DOCUMENTS\A-UNIVERSITY\2NDYEAR\SEMESTER 2\COS30031\LAB\SPIKE7\ZORKISH\ZORKISH\DEBUG\PLAYER.OBJ
C:\USERS\RUBYB_000\DOCUMENTS\A-UNIVERSITY\2NDYEAR\SEMESTER 2\COS30031\LAB\SPIKE7\ZORKISH\ZORKISH\DEBUG\ZORKISH.OBJ
^C:\USERS\RUBYB_000\DOCUMENTS\A-UNIVERSITY\2NDYEAR\SEMESTER 2\COS30031\LAB\SPIKE7\ZORKISH\ZORKISH\GAMEWORLD.CPP|C:\USERS\RUBYB_000\DOCUMENTS\A-UNIVERSITY\2NDYEAR\SEMESTER 2\COS30031\LAB\SPIKE7\ZORKISH\ZORKISH\PLAYER.CPP|C:\USERS\RUBYB_000\DOCUMENTS\A-UNIVERSITY\2NDYEAR\SEMESTER 2\COS30031\LAB\SPIKE7\ZORKISH\ZORKISH\ZORKISH.CPP
C:\USERS\RUBYB_000\DOCUMENTS\A-UNIVERSITY\2NDYEAR\SEMESTER 2\COS30031\LAB\SPIKE7\ZORKISH\ZORKISH\DEBUG\VC140.PDB
C:\USERS\RUBYB_000\DOCUMENTS\A-UNIVERSITY\2NDYEAR\SEMESTER 2\COS30031\LAB\SPIKE7\ZORKISH\ZORKISH\DEBUG\VC140.IDB
C:\USERS\RUBYB_000\DOCUMENTS\A-UNIVERSITY\2NDYEAR\SEMESTER 2\COS30031\LAB\SPIKE7\ZORKISH\ZORKISH\DEBUG\GAMEWORLD.OBJ
C:\USERS\RUBYB_000\DOCUMENTS\A-UNIVERSITY\2NDYEAR\SEMESTER 2\COS30031\LAB\SPIKE7\ZORKISH\ZORKISH\DEBUG\PLAYER.OBJ
C:\USERS\RUBYB_000\DOCUMENTS\A-UNIVERSITY\2NDYEAR\SEMESTER 2\COS30031\LAB\SPIKE7\ZORKISH\ZORKISH\DEBUG\ZORKISH.OBJ
^C:\USERS\RUBYB_000\DOCUMENTS\A-UNIVERSITY\2NDYEAR\SEMESTER 2\COS30031\LAB\SPIKE7\ZORKISH\ZORKISH\GAMEWORLD.CPP
C:\USERS\RUBYB_000\DOCUMENTS\A-UNIVERSITY\2NDYEAR\SEMESTER 2\COS30031\LAB\SPIKE7\ZORKISH\ZORKISH\DEBUG\VC140.PDB
^C:\USERS\RUBYB_000\DOCUMENTS\A-UNIVERSITY\2NDYEAR\SEMESTER 2\COS30031\LAB\SPIKE7\ZORKISH\ZORKISH\GAMEWORLD.CPP|C:\USERS\RUBYB_000\DOCUMENTS\A-UNIVERSITY\2NDYEAR\SEMESTER 2\COS30031\LAB\SPIKE7\ZORKISH\ZORKISH\ZORKISH.CPP
C:\USERS\RUBYB_000\DOCUMENTS\A-UNIVERSITY\2NDYEAR\SEMESTER 2\COS30031\LAB\SPIKE7\ZORKISH\ZORKISH\DEBUG\VC140.PDB
C:\USERS\RUBYB_000\DOCUMENTS\A-UNIVERSITY\2NDYEAR\SEMESTER 2\COS30031\LAB\SPIKE7\ZORKISH\ZORKISH\DEBUG\VC140.IDB
C:\USERS\RUBYB_000\DOCUMENTS\A-UNIVERSITY\2NDYEAR\SEMESTER 2\COS30031\LAB\SPIKE7\ZORKISH\ZORKISH\DEBUG\GAMEWORLD.OBJ
^C:\USERS\RUBYB_000\DOCUMENTS\A-UNIVERSITY\2NDYEAR\SEMESTER 2\COS30031\LAB\SPIKE7\ZORKISH\ZORKISH\GAMEPLAY.CPP|C:\USERS\RUBYB_000\DOCUMENTS\A-UNIVERSITY\2NDYEAR\SEMESTER 2\COS30031\LAB\SPIKE7\ZORKISH\ZORKISH\SELECTADVENTURE.CPP|C:\USERS\RUBYB_000\DOCUMENTS\A-UNIVERSITY\2NDYEAR\SEMESTER 2\COS30031\LAB\SPIKE7\ZORKISH\ZORKISH\ZORKISH.CPP
C:\USERS\RUBYB_000\DOCUMENTS\A-UNIVERSITY\2NDYEAR\SEMESTER 2\COS30031\LAB\SPIKE7\ZORKISH\ZORKISH\DEBUG\VC140.PDB
C:\USERS\RUBYB_000\DOCUMENTS\A-UNIVERSITY\2NDYEAR\SEMESTER 2\COS30031\LAB\SPIKE7\ZORKISH\ZORKISH\DEBUG\VC140.IDB
C:\USERS\RUBYB_000\DOCUMENTS\A-UNIVERSITY\2NDYEAR\SEMESTER 2\COS30031\LAB\SPIKE7\ZORKISH\ZORKISH\DEBUG\GAMEPLAY.OBJ
C:\USERS\RUBYB_000\DOCUMENTS\A-UNIVERSITY\2NDYEAR\SEMESTER 2\COS30031\LAB\SPIKE7\ZORKISH\ZORKISH\DEBUG\ZORKISH.OBJ
^C:\USERS\RUBYB_000\DOCUMENTS\A-UNIVERSITY\2NDYEAR\SEMESTER 2\COS30031\LAB\SPIKE7\ZORKISH\ZORKISH\GAMEPLAY.CPP|C:\USERS\RUBYB_000\DOCUMENTS\A-UNIVERSITY\2NDYEAR\SEMESTER 2\COS30031\LAB\SPIKE7\ZORKISH\ZORKISH\SELECTADVENTURE.CPP
C:\USERS\RUBYB_000\DOCUMENTS\A-UNIVERSITY\2NDYEAR\SEMESTER 2\COS30031\LAB\SPIKE7\ZORKISH\ZORKISH\DEBUG\VC140.PDB
C:\USERS\RUBYB_000\DOCUMENTS\A-UNIVERSITY\2NDYEAR\SEMESTER 2\COS30031\LAB\SPIKE7\ZORKISH\ZORKISH\DEBUG\VC140.IDB
C:\USERS\RUBYB_000\DOCUMENTS\A-UNIVERSITY\2NDYEAR\SEMESTER 2\COS30031\LAB\SPIKE7\ZORKISH\ZORKISH\DEBUG\GAMEPLAY.OBJ
C:\USERS\RUBYB_000\DOCUMENTS\A-UNIVERSITY\2NDYEAR\SEMESTER 2\COS30031\LAB\SPIKE7\ZORKISH\ZORKISH\DEBUG\SELECTADVENTURE.OBJ
^C:\USERS\RUBYB_000\DOCUMENTS\A-UNIVERSITY\2NDYEAR\SEMESTER 2\COS30031\LAB\SPIKE7\ZORKISH\ZORKISH\GAMEPLAY.CPP|C:\USERS\RUBYB_000\DOCUMENTS\A-UNIVERSITY\2NDYEAR\SEMESTER 2\COS30031\LAB\SPIKE7\ZORKISH\ZORKISH\PLAYER.CPP
C:\USERS\RUBYB_000\DOCUMENTS\A-UNIVERSITY\2NDYEAR\SEMESTER 2\COS30031\LAB\SPIKE7\ZORKISH\ZORKISH\DEBUG\VC140.PDB
C:\USERS\RUBYB_000\DOCUMENTS\A-UNIVERSITY\2NDYEAR\SEMESTER 2\COS30031\LAB\SPIKE7\ZORKISH\ZORKISH\DEBUG\VC140.IDB
C:\USERS\RUBYB_000\DOCUMENTS\A-UNIVERSITY\2NDYEAR\SEMESTER 2\COS30031\LAB\SPIKE7\ZORKISH\ZORKISH\DEBUG\GAMEPLAY.OBJ
C:\USERS\RUBYB_000\DOCUMENTS\A-UNIVERSITY\2NDYEAR\SEMESTER 2\COS30031\LAB\SPIKE7\ZORKISH\ZORKISH\DEBUG\PLAYER.OBJ
^C:\USERS\RUBYB_000\DOCUMENTS\A-UNIVERSITY\2NDYEAR\SEMESTER 2\COS30031\LAB\SPIKE7\ZORKISH\ZORKISH\GAMEPLAY.CPP|C:\USERS\RUBYB_000\DOCUMENTS\A-UNIVERSITY\2NDYEAR\SEMESTER 2\COS30031\LAB\SPIKE7\ZORKISH\ZORKISH\GAMEWORLD.CPP|C:\USERS\RUBYB_000\DOCUMENTS\A-UNIVERSITY\2NDYEAR\SEMESTER 2\COS30031\LAB\SPIKE7\ZORKISH\ZORKISH\LOCATION.CPP|C:\USERS\RUBYB_000\DOCUMENTS\A-UNIVERSITY\2NDYEAR\SEMESTER 2\COS30031\LAB\SPIKE7\ZORKISH\ZORKISH\PLAYER.CPP|C:\USERS\RUBYB_000\DOCUMENTS\A-UNIVERSITY\2NDYEAR\SEMESTER 2\COS30031\LAB\SPIKE7\ZORKISH\ZORKISH\SELECTADVENTURE.CPP|C:\USERS\RUBYB_000\DOCUMENTS\A-UNIVERSITY\2NDYEAR\SEMESTER 2\COS30031\LAB\SPIKE7\ZORKISH\ZORKISH\ZORKISH.CPP
C:\USERS\RUBYB_000\DOCUMENTS\A-UNIVERSITY\2NDYEAR\SEMESTER 2\COS30031\LAB\SPIKE7\ZORKISH\ZORKISH\DEBUG\VC140.PDB
C:\USERS\RUBYB_000\DOCUMENTS\A-UNIVERSITY\2NDYEAR\SEMESTER 2\COS30031\LAB\SPIKE7\ZORKISH\ZORKISH\DEBUG\VC140.IDB
C:\USERS\RUBYB_000\DOCUMENTS\A-UNIVERSITY\2NDYEAR\SEMESTER 2\COS30031\LAB\SPIKE7\ZORKISH\ZORKISH\DEBUG\GAMEPLAY.OBJ
C:\USERS\RUBYB_000\DOCUMENTS\A-UNIVERSITY\2NDYEAR\SEMESTER 2\COS30031\LAB\SPIKE7\ZORKISH\ZORKISH\DEBUG\LOCATION.OBJ
^C:\USERS\RUBYB_000\DOCUMENTS\A-UNIVERSITY\2NDYEAR\SEMESTER 2\COS30031\LAB\SPIKE7\ZORKISH\ZORKISH\GAMEPLAY.CPP|C:\USERS\RUBYB_000\DOCUMENTS\A-UNIVERSITY\2NDYEAR\SEMESTER 2\COS30031\LAB\SPIKE7\ZORKISH\ZORKISH\LOCATION.CPP
C:\USERS\RUBYB_000\DOCUMENTS\A-UNIVERSITY\2NDYEAR\SEMESTER 2\COS30031\LAB\SPIKE7\ZORKISH\ZORKISH\DEBUG\VC140.PDB
C:\USERS\RUBYB_000\DOCUMENTS\A-UNIVERSITY\2NDYEAR\SEMESTER 2\COS30031\LAB\SPIKE7\ZORKISH\ZORKISH\DEBUG\VC140.IDB
C:\USERS\RUBYB_000\DOCUMENTS\A-UNIVERSITY\2NDYEAR\SEMESTER 2\COS30031\LAB\SPIKE7\ZORKISH\ZORKISH\DEBUG\GAMEPLAY.OBJ
C:\USERS\RUBYB_000\DOCUMENTS\A-UNIVERSITY\2NDYEAR\SEMESTER 2\COS30031\LAB\SPIKE7\ZORKISH\ZORKISH\DEBUG\LOCATION.OBJ
^C:\USERS\RUBYB_000\DOCUMENTS\A-UNIVERSITY\2NDYEAR\SEMESTER 2\COS30031\LAB\SPIKE8\ZORKISH\ZORKISH\STDAFX.CPP
C:\USERS\RUBYB_000\DOCUMENTS\A-UNIVERSITY\2NDYEAR\SEMESTER 2\COS30031\LAB\SPIKE8\ZORKISH\ZORKISH\DEBUG\ZORKISH.PCH
C:\USERS\RUBYB_000\DOCUMENTS\A-UNIVERSITY\2NDYEAR\SEMESTER 2\COS30031\LAB\SPIKE8\ZORKISH\ZORKISH\DEBUG\VC140.PDB
C:\USERS\RUBYB_000\DOCUMENTS\A-UNIVERSITY\2NDYEAR\SEMESTER 2\COS30031\LAB\SPIKE8\ZORKISH\ZORKISH\DEBUG\VC140.IDB
C:\USERS\RUBYB_000\DOCUMENTS\A-UNIVERSITY\2NDYEAR\SEMESTER 2\COS30031\LAB\SPIKE8\ZORKISH\ZORKISH\DEBUG\STDAFX.OBJ
^C:\USERS\RUBYB_000\DOCUMENTS\A-UNIVERSITY\2NDYEAR\SEMESTER 2\COS30031\LAB\SPIKE8\ZORKISH\ZORKISH\ABOUT.CPP|C:\USERS\RUBYB_000\DOCUMENTS\A-UNIVERSITY\2NDYEAR\SEMESTER 2\COS30031\LAB\SPIKE8\ZORKISH\ZORKISH\COMMAND.CPP|C:\USERS\RUBYB_000\DOCUMENTS\A-UNIVERSITY\2NDYEAR\SEMESTER 2\COS30031\LAB\SPIKE8\ZORKISH\ZORKISH\GAMECONTROLLER.CPP|C:\USERS\RUBYB_000\DOCUMENTS\A-UNIVERSITY\2NDYEAR\SEMESTER 2\COS30031\LAB\SPIKE8\ZORKISH\ZORKISH\GAMEOBJECT.CPP|C:\USERS\RUBYB_000\DOCUMENTS\A-UNIVERSITY\2NDYEAR\SEMESTER 2\COS30031\LAB\SPIKE8\ZORKISH\ZORKISH\GAMEPLAY.CPP|C:\USERS\RUBYB_000\DOCUMENTS\A-UNIVERSITY\2NDYEAR\SEMESTER 2\COS30031\LAB\SPIKE8\ZORKISH\ZORKISH\GAMEWORLD.CPP|C:\USERS\RUBYB_000\DOCUMENTS\A-UNIVERSITY\2NDYEAR\SEMESTER 2\COS30031\LAB\SPIKE8\ZORKISH\ZORKISH\HELP.CPP|C:\USERS\RUBYB_000\DOCUMENTS\A-UNIVERSITY\2NDYEAR\SEMESTER 2\COS30031\LAB\SPIKE8\ZORKISH\ZORKISH\IDENTIFIABLEOBJECT.CPP|C:\USERS\RUBYB_000\DOCUMENTS\A-UNIVERSITY\2NDYEAR\SEMESTER 2\COS30031\LAB\SPIKE8\ZORKISH\ZORKISH\IHAVEINVENTORY.CPP|C:\USERS\RUBYB_000\DOCUMENTS\A-UNIVERSITY\2NDYEAR\SEMESTER 2\COS30031\LAB\SPIKE8\ZORKISH\ZORKISH\INVENTORY.CPP|C:\USERS\RUBYB_000\DOCUMENTS\A-UNIVERSITY\2NDYEAR\SEMESTER 2\COS30031\LAB\SPIKE8\ZORKISH\ZORKISH\ITEM.CPP|C:\USERS\RUBYB_000\DOCUMENTS\A-UNIVERSITY\2NDYEAR\SEMESTER 2\COS30031\LAB\SPIKE8\ZORKISH\ZORKISH\LOCATION.CPP|C:\USERS\RUBYB_000\DOCUMENTS\A-UNIVERSITY\2NDYEAR\SEMESTER 2\COS30031\LAB\SPIKE8\ZORKISH\ZORKISH\LOOKCOMMAND.CPP|C:\USERS\RUBYB_000\DOCUMENTS\A-UNIVERSITY\2NDYEAR\SEMESTER 2\COS30031\LAB\SPIKE8\ZORKISH\ZORKISH\MAINMENU.CPP|C:\USERS\RUBYB_000\DOCUMENTS\A-UNIVERSITY\2NDYEAR\SEMESTER 2\COS30031\LAB\SPIKE8\ZORKISH\ZORKISH\NEWHIGHSCORE.CPP|C:\USERS\RUBYB_000\DOCUMENTS\A-UNIVERSITY\2NDYEAR\SEMESTER 2\COS30031\LAB\SPIKE8\ZORKISH\ZORKISH\PATH.CPP|C:\USERS\RUBYB_000\DOCUMENTS\A-UNIVERSITY\2NDYEAR\SEMESTER 2\COS30031\LAB\SPIKE8\ZORKISH\ZORKISH\PLAYER.CPP|C:\USERS\RUBYB_000\DOCUMENTS\A-UNIVERSITY\2NDYEAR\SEMESTER 2\COS30031\LAB\SPIKE8\ZORKISH\ZORKISH\SELECTADVENTURE.CPP|C:\USERS\RUBYB_000\DOCUMENTS\A-UNIVERSITY\2NDYEAR\SEMESTER 2\COS30031\LAB\SPIKE8\ZORKISH\ZORKISH\STATE.CPP|C:\USERS\RUBYB_000\DOCUMENTS\A-UNIVERSITY\2NDYEAR\SEMESTER 2\COS30031\LAB\SPIKE8\ZORKISH\ZORKISH\VIEWHALLOFFAME.CPP|C:\USERS\RUBYB_000\DOCUMENTS\A-UNIVERSITY\2NDYEAR\SEMESTER 2\COS30031\LAB\SPIKE8\ZORKISH\ZORKISH\ZORKISH.CPP
C:\USERS\RUBYB_000\DOCUMENTS\A-UNIVERSITY\2NDYEAR\SEMESTER 2\COS30031\LAB\SPIKE8\ZORKISH\ZORKISH\DEBUG\VC140.PDB
C:\USERS\RUBYB_000\DOCUMENTS\A-UNIVERSITY\2NDYEAR\SEMESTER 2\COS30031\LAB\SPIKE8\ZORKISH\ZORKISH\DEBUG\VC140.IDB
C:\USERS\RUBYB_000\DOCUMENTS\A-UNIVERSITY\2NDYEAR\SEMESTER 2\COS30031\LAB\SPIKE8\ZORKISH\ZORKISH\DEBUG\COMMAND.OBJ
C:\USERS\RUBYB_000\DOCUMENTS\A-UNIVERSITY\2NDYEAR\SEMESTER 2\COS30031\LAB\SPIKE8\ZORKISH\ZORKISH\DEBUG\GAMECONTROLLER.OBJ
C:\USERS\RUBYB_000\DOCUMENTS\A-UNIVERSITY\2NDYEAR\SEMESTER 2\COS30031\LAB\SPIKE8\ZORKISH\ZORKISH\DEBUG\GAMEOBJECT.OBJ
C:\USERS\RUBYB_000\DOCUMENTS\A-UNIVERSITY\2NDYEAR\SEMESTER 2\COS30031\LAB\SPIKE8\ZORKISH\ZORKISH\DEBUG\GAMEWORLD.OBJ
C:\USERS\RUBYB_000\DOCUMENTS\A-UNIVERSITY\2NDYEAR\SEMESTER 2\COS30031\LAB\SPIKE8\ZORKISH\ZORKISH\DEBUG\HELP.OBJ
C:\USERS\RUBYB_000\DOCUMENTS\A-UNIVERSITY\2NDYEAR\SEMESTER 2\COS30031\LAB\SPIKE8\ZORKISH\ZORKISH\DEBUG\IDENTIFIABLEOBJECT.OBJ
C:\USERS\RUBYB_000\DOCUMENTS\A-UNIVERSITY\2NDYEAR\SEMESTER 2\COS30031\LAB\SPIKE8\ZORKISH\ZORKISH\DEBUG\IHAVEINVENTORY.OBJ
C:\USERS\RUBYB_000\DOCUMENTS\A-UNIVERSITY\2NDYEAR\SEMESTER 2\COS30031\LAB\SPIKE8\ZORKISH\ZORKISH\DEBUG\INVENTORY.OBJ
C:\USERS\RUBYB_000\DOCUMENTS\A-UNIVERSITY\2NDYEAR\SEMESTER 2\COS30031\LAB\SPIKE8\ZORKISH\ZORKISH\DEBUG\ITEM.OBJ
C:\USERS\RUBYB_000\DOCUMENTS\A-UNIVERSITY\2NDYEAR\SEMESTER 2\COS30031\LAB\SPIKE8\ZORKISH\ZORKISH\DEBUG\LOCATION.OBJ
C:\USERS\RUBYB_000\DOCUMENTS\A-UNIVERSITY\2NDYEAR\SEMESTER 2\COS30031\LAB\SPIKE8\ZORKISH\ZORKISH\DEBUG\LOOKCOMMAND.OBJ
C:\USERS\RUBYB_000\DOCUMENTS\A-UNIVERSITY\2NDYEAR\SEMESTER 2\COS30031\LAB\SPIKE8\ZORKISH\ZORKISH\DEBUG\MAINMENU.OBJ
C:\USERS\RUBYB_000\DOCUMENTS\A-UNIVERSITY\2NDYEAR\SEMESTER 2\COS30031\LAB\SPIKE8\ZORKISH\ZORKISH\DEBUG\NEWHIGHSCORE.OBJ
C:\USERS\RUBYB_000\DOCUMENTS\A-UNIVERSITY\2NDYEAR\SEMESTER 2\COS30031\LAB\SPIKE8\ZORKISH\ZORKISH\DEBUG\PATH.OBJ
C:\USERS\RUBYB_000\DOCUMENTS\A-UNIVERSITY\2NDYEAR\SEMESTER 2\COS30031\LAB\SPIKE8\ZORKISH\ZORKISH\DEBUG\PLAYER.OBJ
C:\USERS\RUBYB_000\DOCUMENTS\A-UNIVERSITY\2NDYEAR\SEMESTER 2\COS30031\LAB\SPIKE8\ZORKISH\ZORKISH\DEBUG\STATE.OBJ
C:\USERS\RUBYB_000\DOCUMENTS\A-UNIVERSITY\2NDYEAR\SEMESTER 2\COS30031\LAB\SPIKE8\ZORKISH\ZORKISH\DEBUG\VIEWHALLOFFAME.OBJ
C:\USERS\RUBYB_000\DOCUMENTS\A-UNIVERSITY\2NDYEAR\SEMESTER 2\COS30031\LAB\SPIKE8\ZORKISH\ZORKISH\DEBUG\ZORKISH.OBJ
C:\USERS\RUBYB_000\DOCUMENTS\A-UNIVERSITY\2NDYEAR\SEMESTER 2\COS30031\LAB\SPIKE8\ZORKISH\ZORKISH\DEBUG\ABOUT.OBJ
^C:\USERS\RUBYB_000\DOCUMENTS\A-UNIVERSITY\2NDYEAR\SEMESTER 2\COS30031\LAB\SPIKE8\ZORKISH\ZORKISH\ABOUT.CPP
C:\USERS\RUBYB_000\DOCUMENTS\A-UNIVERSITY\2NDYEAR\SEMESTER 2\COS30031\LAB\SPIKE8\ZORKISH\ZORKISH\DEBUG\VC140.PDB
^C:\USERS\RUBYB_000\DOCUMENTS\A-UNIVERSITY\2NDYEAR\SEMESTER 2\COS30031\LAB\SPIKE8\ZORKISH\ZORKISH\COMMAND.CPP
C:\USERS\RUBYB_000\DOCUMENTS\A-UNIVERSITY\2NDYEAR\SEMESTER 2\COS30031\LAB\SPIKE8\ZORKISH\ZORKISH\DEBUG\VC140.PDB
^C:\USERS\RUBYB_000\DOCUMENTS\A-UNIVERSITY\2NDYEAR\SEMESTER 2\COS30031\LAB\SPIKE8\ZORKISH\ZORKISH\GAMECONTROLLER.CPP
C:\USERS\RUBYB_000\DOCUMENTS\A-UNIVERSITY\2NDYEAR\SEMESTER 2\COS30031\LAB\SPIKE8\ZORKISH\ZORKISH\DEBUG\VC140.PDB
C:\USERS\RUBYB_000\DOCUMENTS\A-UNIVERSITY\2NDYEAR\SEMESTER 2\COS30031\LAB\SPIKE8\ZORKISH\ZORKISH\DEBUG\VC140.IDB
C:\USERS\RUBYB_000\DOCUMENTS\A-UNIVERSITY\2NDYEAR\SEMESTER 2\COS30031\LAB\SPIKE8\ZORKISH\ZORKISH\DEBUG\GAMECONTROLLER.OBJ
^C:\USERS\RUBYB_000\DOCUMENTS\A-UNIVERSITY\2NDYEAR\SEMESTER 2\COS30031\LAB\SPIKE8\ZORKISH\ZORKISH\GAMEOBJECT.CPP
C:\USERS\RUBYB_000\DOCUMENTS\A-UNIVERSITY\2NDYEAR\SEMESTER 2\COS30031\LAB\SPIKE8\ZORKISH\ZORKISH\DEBUG\VC140.PDB
C:\USERS\RUBYB_000\DOCUMENTS\A-UNIVERSITY\2NDYEAR\SEMESTER 2\COS30031\LAB\SPIKE8\ZORKISH\ZORKISH\DEBUG\VC140.IDB
^C:\USERS\RUBYB_000\DOCUMENTS\A-UNIVERSITY\2NDYEAR\SEMESTER 2\COS30031\LAB\SPIKE8\ZORKISH\ZORKISH\GAMEPLAY.CPP
C:\USERS\RUBYB_000\DOCUMENTS\A-UNIVERSITY\2NDYEAR\SEMESTER 2\COS30031\LAB\SPIKE8\ZORKISH\ZORKISH\DEBUG\VC140.PDB
C:\USERS\RUBYB_000\DOCUMENTS\A-UNIVERSITY\2NDYEAR\SEMESTER 2\COS30031\LAB\SPIKE8\ZORKISH\ZORKISH\DEBUG\VC140.IDB
C:\USERS\RUBYB_000\DOCUMENTS\A-UNIVERSITY\2NDYEAR\SEMESTER 2\COS30031\LAB\SPIKE8\ZORKISH\ZORKISH\DEBUG\GAMEPLAY.OBJ
^C:\USERS\RUBYB_000\DOCUMENTS\A-UNIVERSITY\2NDYEAR\SEMESTER 2\COS30031\LAB\SPIKE8\ZORKISH\ZORKISH\GAMEWORLD.CPP
C:\USERS\RUBYB_000\DOCUMENTS\A-UNIVERSITY\2NDYEAR\SEMESTER 2\COS30031\LAB\SPIKE8\ZORKISH\ZORKISH\DEBUG\VC140.PDB
^C:\USERS\RUBYB_000\DOCUMENTS\A-UNIVERSITY\2NDYEAR\SEMESTER 2\COS30031\LAB\SPIKE8\ZORKISH\ZORKISH\HELP.CPP
C:\USERS\RUBYB_000\DOCUMENTS\A-UNIVERSITY\2NDYEAR\SEMESTER 2\COS30031\LAB\SPIKE8\ZORKISH\ZORKISH\DEBUG\VC140.PDB
^C:\USERS\RUBYB_000\DOCUMENTS\A-UNIVERSITY\2NDYEAR\SEMESTER 2\COS30031\LAB\SPIKE8\ZORKISH\ZORKISH\IDENTIFIABLEOBJECT.CPP
C:\USERS\RUBYB_000\DOCUMENTS\A-UNIVERSITY\2NDYEAR\SEMESTER 2\COS30031\LAB\SPIKE8\ZORKISH\ZORKISH\DEBUG\VC140.PDB
C:\USERS\RUBYB_000\DOCUMENTS\A-UNIVERSITY\2NDYEAR\SEMESTER 2\COS30031\LAB\SPIKE8\ZORKISH\ZORKISH\DEBUG\VC140.IDB
C:\USERS\RUBYB_000\DOCUMENTS\A-UNIVERSITY\2NDYEAR\SEMESTER 2\COS30031\LAB\SPIKE8\ZORKISH\ZORKISH\DEBUG\IDENTIFIABLEOBJECT.OBJ
^C:\USERS\RUBYB_000\DOCUMENTS\A-UNIVERSITY\2NDYEAR\SEMESTER 2\COS30031\LAB\SPIKE8\ZORKISH\ZORKISH\IHAVEINVENTORY.CPP
C:\USERS\RUBYB_000\DOCUMENTS\A-UNIVERSITY\2NDYEAR\SEMESTER 2\COS30031\LAB\SPIKE8\ZORKISH\ZORKISH\DEBUG\VC140.PDB
^C:\USERS\RUBYB_000\DOCUMENTS\A-UNIVERSITY\2NDYEAR\SEMESTER 2\COS30031\LAB\SPIKE8\ZORKISH\ZORKISH\INVENTORY.CPP
C:\USERS\RUBYB_000\DOCUMENTS\A-UNIVERSITY\2NDYEAR\SEMESTER 2\COS30031\LAB\SPIKE8\ZORKISH\ZORKISH\DEBUG\VC140.PDB
C:\USERS\RUBYB_000\DOCUMENTS\A-UNIVERSITY\2NDYEAR\SEMESTER 2\COS30031\LAB\SPIKE8\ZORKISH\ZORKISH\DEBUG\VC140.IDB
C:\USERS\RUBYB_000\DOCUMENTS\A-UNIVERSITY\2NDYEAR\SEMESTER 2\COS30031\LAB\SPIKE8\ZORKISH\ZORKISH\DEBUG\INVENTORY.OBJ
^C:\USERS\RUBYB_000\DOCUMENTS\A-UNIVERSITY\2NDYEAR\SEMESTER 2\COS30031\LAB\SPIKE8\ZORKISH\ZORKISH\ITEM.CPP
C:\USERS\RUBYB_000\DOCUMENTS\A-UNIVERSITY\2NDYEAR\SEMESTER 2\COS30031\LAB\SPIKE8\ZORKISH\ZORKISH\DEBUG\VC140.PDB
^C:\USERS\RUBYB_000\DOCUMENTS\A-UNIVERSITY\2NDYEAR\SEMESTER 2\COS30031\LAB\SPIKE8\ZORKISH\ZORKISH\LOCATION.CPP
C:\USERS\RUBYB_000\DOCUMENTS\A-UNIVERSITY\2NDYEAR\SEMESTER 2\COS30031\LAB\SPIKE8\ZORKISH\ZORKISH\DEBUG\VC140.PDB
C:\USERS\RUBYB_000\DOCUMENTS\A-UNIVERSITY\2NDYEAR\SEMESTER 2\COS30031\LAB\SPIKE8\ZORKISH\ZORKISH\DEBUG\VC140.IDB
C:\USERS\RUBYB_000\DOCUMENTS\A-UNIVERSITY\2NDYEAR\SEMESTER 2\COS30031\LAB\SPIKE8\ZORKISH\ZORKISH\DEBUG\LOCATION.OBJ
^C:\USERS\RUBYB_000\DOCUMENTS\A-UNIVERSITY\2NDYEAR\SEMESTER 2\COS30031\LAB\SPIKE8\ZORKISH\ZORKISH\LOOKCOMMAND.CPP
C:\USERS\RUBYB_000\DOCUMENTS\A-UNIVERSITY\2NDYEAR\SEMESTER 2\COS30031\LAB\SPIKE8\ZORKISH\ZORKISH\DEBUG\VC140.PDB
C:\USERS\RUBYB_000\DOCUMENTS\A-UNIVERSITY\2NDYEAR\SEMESTER 2\COS30031\LAB\SPIKE8\ZORKISH\ZORKISH\DEBUG\VC140.IDB
C:\USERS\RUBYB_000\DOCUMENTS\A-UNIVERSITY\2NDYEAR\SEMESTER 2\COS30031\LAB\SPIKE8\ZORKISH\ZORKISH\DEBUG\LOOKCOMMAND.OBJ
^C:\USERS\RUBYB_000\DOCUMENTS\A-UNIVERSITY\2NDYEAR\SEMESTER 2\COS30031\LAB\SPIKE8\ZORKISH\ZORKISH\MAINMENU.CPP
C:\USERS\RUBYB_000\DOCUMENTS\A-UNIVERSITY\2NDYEAR\SEMESTER 2\COS30031\LAB\SPIKE8\ZORKISH\ZORKISH\DEBUG\VC140.PDB
^C:\USERS\RUBYB_000\DOCUMENTS\A-UNIVERSITY\2NDYEAR\SEMESTER 2\COS30031\LAB\SPIKE8\ZORKISH\ZORKISH\NEWHIGHSCORE.CPP
C:\USERS\RUBYB_000\DOCUMENTS\A-UNIVERSITY\2NDYEAR\SEMESTER 2\COS30031\LAB\SPIKE8\ZORKISH\ZORKISH\DEBUG\VC140.PDB
^C:\USERS\RUBYB_000\DOCUMENTS\A-UNIVERSITY\2NDYEAR\SEMESTER 2\COS30031\LAB\SPIKE8\ZORKISH\ZORKISH\PATH.CPP
C:\USERS\RUBYB_000\DOCUMENTS\A-UNIVERSITY\2NDYEAR\SEMESTER 2\COS30031\LAB\SPIKE8\ZORKISH\ZORKISH\DEBUG\VC140.PDB
^C:\USERS\RUBYB_000\DOCUMENTS\A-UNIVERSITY\2NDYEAR\SEMESTER 2\COS30031\LAB\SPIKE8\ZORKISH\ZORKISH\PLAYER.CPP
C:\USERS\RUBYB_000\DOCUMENTS\A-UNIVERSITY\2NDYEAR\SEMESTER 2\COS30031\LAB\SPIKE8\ZORKISH\ZORKISH\DEBUG\VC140.PDB
C:\USERS\RUBYB_000\DOCUMENTS\A-UNIVERSITY\2NDYEAR\SEMESTER 2\COS30031\LAB\SPIKE8\ZORKISH\ZORKISH\DEBUG\VC140.IDB
^C:\USERS\RUBYB_000\DOCUMENTS\A-UNIVERSITY\2NDYEAR\SEMESTER 2\COS30031\LAB\SPIKE8\ZORKISH\ZORKISH\SELECTADVENTURE.CPP
C:\USERS\RUBYB_000\DOCUMENTS\A-UNIVERSITY\2NDYEAR\SEMESTER 2\COS30031\LAB\SPIKE8\ZORKISH\ZORKISH\DEBUG\VC140.PDB
C:\USERS\RUBYB_000\DOCUMENTS\A-UNIVERSITY\2NDYEAR\SEMESTER 2\COS30031\LAB\SPIKE8\ZORKISH\ZORKISH\DEBUG\VC140.IDB
C:\USERS\RUBYB_000\DOCUMENTS\A-UNIVERSITY\2NDYEAR\SEMESTER 2\COS30031\LAB\SPIKE8\ZORKISH\ZORKISH\DEBUG\SELECTADVENTURE.OBJ
^C:\USERS\RUBYB_000\DOCUMENTS\A-UNIVERSITY\2NDYEAR\SEMESTER 2\COS30031\LAB\SPIKE8\ZORKISH\ZORKISH\STATE.CPP
C:\USERS\RUBYB_000\DOCUMENTS\A-UNIVERSITY\2NDYEAR\SEMESTER 2\COS30031\LAB\SPIKE8\ZORKISH\ZORKISH\DEBUG\VC140.PDB
^C:\USERS\RUBYB_000\DOCUMENTS\A-UNIVERSITY\2NDYEAR\SEMESTER 2\COS30031\LAB\SPIKE8\ZORKISH\ZORKISH\VIEWHALLOFFAME.CPP
C:\USERS\RUBYB_000\DOCUMENTS\A-UNIVERSITY\2NDYEAR\SEMESTER 2\COS30031\LAB\SPIKE8\ZORKISH\ZORKISH\DEBUG\VC140.PDB
^C:\USERS\RUBYB_000\DOCUMENTS\A-UNIVERSITY\2NDYEAR\SEMESTER 2\COS30031\LAB\SPIKE8\ZORKISH\ZORKISH\ZORKISH.CPP
C:\USERS\RUBYB_000\DOCUMENTS\A-UNIVERSITY\2NDYEAR\SEMESTER 2\COS30031\LAB\SPIKE8\ZORKISH\ZORKISH\DEBUG\VC140.PDB
^C:\USERS\RUBYB_000\DOCUMENTS\A-UNIVERSITY\2NDYEAR\SEMESTER 2\COS30031\LAB\SPIKE8\ZORKISH\ZORKISH\GAMEPLAY.CPP|C:\USERS\RUBYB_000\DOCUMENTS\A-UNIVERSITY\2NDYEAR\SEMESTER 2\COS30031\LAB\SPIKE8\ZORKISH\ZORKISH\SELECTADVENTURE.CPP
C:\USERS\RUBYB_000\DOCUMENTS\A-UNIVERSITY\2NDYEAR\SEMESTER 2\COS30031\LAB\SPIKE8\ZORKISH\ZORKISH\DEBUG\VC140.PDB
C:\USERS\RUBYB_000\DOCUMENTS\A-UNIVERSITY\2NDYEAR\SEMESTER 2\COS30031\LAB\SPIKE8\ZORKISH\ZORKISH\DEBUG\VC140.IDB
C:\USERS\RUBYB_000\DOCUMENTS\A-UNIVERSITY\2NDYEAR\SEMESTER 2\COS30031\LAB\SPIKE8\ZORKISH\ZORKISH\DEBUG\SELECTADVENTURE.OBJ
^C:\USERS\RUBYB_000\DOCUMENTS\A-UNIVERSITY\2NDYEAR\SEMESTER 2\COS30031\LAB\SPIKE8\ZORKISH\ZORKISH\ABOUT.CPP|C:\USERS\RUBYB_000\DOCUMENTS\A-UNIVERSITY\2NDYEAR\SEMESTER 2\COS30031\LAB\SPIKE8\ZORKISH\ZORKISH\GAMECONTROLLER.CPP|C:\USERS\RUBYB_000\DOCUMENTS\A-UNIVERSITY\2NDYEAR\SEMESTER 2\COS30031\LAB\SPIKE8\ZORKISH\ZORKISH\GAMEPLAY.CPP|C:\USERS\RUBYB_000\DOCUMENTS\A-UNIVERSITY\2NDYEAR\SEMESTER 2\COS30031\LAB\SPIKE8\ZORKISH\ZORKISH\HELP.CPP|C:\USERS\RUBYB_000\DOCUMENTS\A-UNIVERSITY\2NDYEAR\SEMESTER 2\COS30031\LAB\SPIKE8\ZORKISH\ZORKISH\MAINMENU.CPP|C:\USERS\RUBYB_000\DOCUMENTS\A-UNIVERSITY\2NDYEAR\SEMESTER 2\COS30031\LAB\SPIKE8\ZORKISH\ZORKISH\NEWHIGHSCORE.CPP|C:\USERS\RUBYB_000\DOCUMENTS\A-UNIVERSITY\2NDYEAR\SEMESTER 2\COS30031\LAB\SPIKE8\ZORKISH\ZORKISH\SELECTADVENTURE.CPP|C:\USERS\RUBYB_000\DOCUMENTS\A-UNIVERSITY\2NDYEAR\SEMESTER 2\COS30031\LAB\SPIKE8\ZORKISH\ZORKISH\STATE.CPP|C:\USERS\RUBYB_000\DOCUMENTS\A-UNIVERSITY\2NDYEAR\SEMESTER 2\COS30031\LAB\SPIKE8\ZORKISH\ZORKISH\VIEWHALLOFFAME.CPP
C:\USERS\RUBYB_000\DOCUMENTS\A-UNIVERSITY\2NDYEAR\SEMESTER 2\COS30031\LAB\SPIKE8\ZORKISH\ZORKISH\DEBUG\VC140.PDB
C:\USERS\RUBYB_000\DOCUMENTS\A-UNIVERSITY\2NDYEAR\SEMESTER 2\COS30031\LAB\SPIKE8\ZORKISH\ZORKISH\DEBUG\VC140.IDB
C:\USERS\RUBYB_000\DOCUMENTS\A-UNIVERSITY\2NDYEAR\SEMESTER 2\COS30031\LAB\SPIKE8\ZORKISH\ZORKISH\DEBUG\HELP.OBJ
C:\USERS\RUBYB_000\DOCUMENTS\A-UNIVERSITY\2NDYEAR\SEMESTER 2\COS30031\LAB\SPIKE8\ZORKISH\ZORKISH\DEBUG\NEWHIGHSCORE.OBJ
C:\USERS\RUBYB_000\DOCUMENTS\A-UNIVERSITY\2NDYEAR\SEMESTER 2\COS30031\LAB\SPIKE8\ZORKISH\ZORKISH\DEBUG\STATE.OBJ
C:\USERS\RUBYB_000\DOCUMENTS\A-UNIVERSITY\2NDYEAR\SEMESTER 2\COS30031\LAB\SPIKE8\ZORKISH\ZORKISH\DEBUG\ABOUT.OBJ
C:\USERS\RUBYB_000\DOCUMENTS\A-UNIVERSITY\2NDYEAR\SEMESTER 2\COS30031\LAB\SPIKE8\ZORKISH\ZORKISH\DEBUG\GAMECONTROLLER.OBJ
C:\USERS\RUBYB_000\DOCUMENTS\A-UNIVERSITY\2NDYEAR\SEMESTER 2\COS30031\LAB\SPIKE8\ZORKISH\ZORKISH\DEBUG\MAINMENU.OBJ
C:\USERS\RUBYB_000\DOCUMENTS\A-UNIVERSITY\2NDYEAR\SEMESTER 2\COS30031\LAB\SPIKE8\ZORKISH\ZORKISH\DEBUG\VIEWHALLOFFAME.OBJ
C:\USERS\RUBYB_000\DOCUMENTS\A-UNIVERSITY\2NDYEAR\SEMESTER 2\COS30031\LAB\SPIKE8\ZORKISH\ZORKISH\DEBUG\SELECTADVENTURE.OBJ
^C:\USERS\RUBYB_000\DOCUMENTS\A-UNIVERSITY\2NDYEAR\SEMESTER 2\COS30031\LAB\SPIKE8\ZORKISH\ZORKISH\COMMANDPROCESSING.CPP|C:\USERS\RUBYB_000\DOCUMENTS\A-UNIVERSITY\2NDYEAR\SEMESTER 2\COS30031\LAB\SPIKE8\ZORKISH\ZORKISH\GAMEPLAY.CPP|C:\USERS\RUBYB_000\DOCUMENTS\A-UNIVERSITY\2NDYEAR\SEMESTER 2\COS30031\LAB\SPIKE8\ZORKISH\ZORKISH\MOVECOMMAND.CPP
C:\USERS\RUBYB_000\DOCUMENTS\A-UNIVERSITY\2NDYEAR\SEMESTER 2\COS30031\LAB\SPIKE8\ZORKISH\ZORKISH\DEBUG\VC140.PDB
C:\USERS\RUBYB_000\DOCUMENTS\A-UNIVERSITY\2NDYEAR\SEMESTER 2\COS30031\LAB\SPIKE8\ZORKISH\ZORKISH\DEBUG\VC140.IDB
C:\USERS\RUBYB_000\DOCUMENTS\A-UNIVERSITY\2NDYEAR\SEMESTER 2\COS30031\LAB\SPIKE8\ZORKISH\ZORKISH\DEBUG\GAMEPLAY.OBJ
C:\USERS\RUBYB_000\DOCUMENTS\A-UNIVERSITY\2NDYEAR\SEMESTER 2\COS30031\LAB\SPIKE8\ZORKISH\ZORKISH\DEBUG\MOVECOMMAND.OBJ
^C:\USERS\RUBYB_000\DOCUMENTS\A-UNIVERSITY\2NDYEAR\SEMESTER 2\COS30031\LAB\SPIKE8\ZORKISH\ZORKISH\COMMANDPROCESSING.CPP
C:\USERS\RUBYB_000\DOCUMENTS\A-UNIVERSITY\2NDYEAR\SEMESTER 2\COS30031\LAB\SPIKE8\ZORKISH\ZORKISH\DEBUG\VC140.PDB
C:\USERS\RUBYB_000\DOCUMENTS\A-UNIVERSITY\2NDYEAR\SEMESTER 2\COS30031\LAB\SPIKE8\ZORKISH\ZORKISH\DEBUG\VC140.IDB
C:\USERS\RUBYB_000\DOCUMENTS\A-UNIVERSITY\2NDYEAR\SEMESTER 2\COS30031\LAB\SPIKE8\ZORKISH\ZORKISH\DEBUG\COMMANDPROCESSING.OBJ
^C:\USERS\RUBYB_000\DOCUMENTS\A-UNIVERSITY\2NDYEAR\SEMESTER 2\COS30031\LAB\SPIKE8\ZORKISH\ZORKISH\MOVECOMMAND.CPP
C:\USERS\RUBYB_000\DOCUMENTS\A-UNIVERSITY\2NDYEAR\SEMESTER 2\COS30031\LAB\SPIKE8\ZORKISH\ZORKISH\DEBUG\VC140.PDB
C:\USERS\RUBYB_000\DOCUMENTS\A-UNIVERSITY\2NDYEAR\SEMESTER 2\COS30031\LAB\SPIKE8\ZORKISH\ZORKISH\DEBUG\VC140.IDB
C:\USERS\RUBYB_000\DOCUMENTS\A-UNIVERSITY\2NDYEAR\SEMESTER 2\COS30031\LAB\SPIKE8\ZORKISH\ZORKISH\DEBUG\MOVECOMMAND.OBJ
^C:\USERS\RUBYB_000\DOCUMENTS\A-UNIVERSITY\2NDYEAR\SEMESTER 2\COS30031\LAB\SPIKE8\ZORKISH\ZORKISH\COMMAND.CPP|C:\USERS\RUBYB_000\DOCUMENTS\A-UNIVERSITY\2NDYEAR\SEMESTER 2\COS30031\LAB\SPIKE8\ZORKISH\ZORKISH\COMMANDPROCESSING.CPP|C:\USERS\RUBYB_000\DOCUMENTS\A-UNIVERSITY\2NDYEAR\SEMESTER 2\COS30031\LAB\SPIKE8\ZORKISH\ZORKISH\GAMEPLAY.CPP|C:\USERS\RUBYB_000\DOCUMENTS\A-UNIVERSITY\2NDYEAR\SEMESTER 2\COS30031\LAB\SPIKE8\ZORKISH\ZORKISH\GAMEWORLD.CPP|C:\USERS\RUBYB_000\DOCUMENTS\A-UNIVERSITY\2NDYEAR\SEMESTER 2\COS30031\LAB\SPIKE8\ZORKISH\ZORKISH\IHAVEINVENTORY.CPP|C:\USERS\RUBYB_000\DOCUMENTS\A-UNIVERSITY\2NDYEAR\SEMESTER 2\COS30031\LAB\SPIKE8\ZORKISH\ZORKISH\INVENTORY.CPP|C:\USERS\RUBYB_000\DOCUMENTS\A-UNIVERSITY\2NDYEAR\SEMESTER 2\COS30031\LAB\SPIKE8\ZORKISH\ZORKISH\ITEM.CPP|C:\USERS\RUBYB_000\DOCUMENTS\A-UNIVERSITY\2NDYEAR\SEMESTER 2\COS30031\LAB\SPIKE8\ZORKISH\ZORKISH\LOCATION.CPP|C:\USERS\RUBYB_000\DOCUMENTS\A-UNIVERSITY\2NDYEAR\SEMESTER 2\COS30031\LAB\SPIKE8\ZORKISH\ZORKISH\LOOKCOMMAND.CPP|C:\USERS\RUBYB_000\DOCUMENTS\A-UNIVERSITY\2NDYEAR\SEMESTER 2\COS30031\LAB\SPIKE8\ZORKISH\ZORKISH\MOVECOMMAND.CPP|C:\USERS\RUBYB_000\DOCUMENTS\A-UNIVERSITY\2NDYEAR\SEMESTER 2\COS30031\LAB\SPIKE8\ZORKISH\ZORKISH\PLAYER.CPP|C:\USERS\RUBYB_000\DOCUMENTS\A-UNIVERSITY\2NDYEAR\SEMESTER 2\COS30031\LAB\SPIKE8\ZORKISH\ZORKISH\SELECTADVENTURE.CPP|C:\USERS\RUBYB_000\DOCUMENTS\A-UNIVERSITY\2NDYEAR\SEMESTER 2\COS30031\LAB\SPIKE8\ZORKISH\ZORKISH\ZORKISH.CPP
C:\USERS\RUBYB_000\DOCUMENTS\A-UNIVERSITY\2NDYEAR\SEMESTER 2\COS30031\LAB\SPIKE8\ZORKISH\ZORKISH\DEBUG\VC140.PDB
C:\USERS\RUBYB_000\DOCUMENTS\A-UNIVERSITY\2NDYEAR\SEMESTER 2\COS30031\LAB\SPIKE8\ZORKISH\ZORKISH\DEBUG\VC140.IDB
C:\USERS\RUBYB_000\DOCUMENTS\A-UNIVERSITY\2NDYEAR\SEMESTER 2\COS30031\LAB\SPIKE8\ZORKISH\ZORKISH\DEBUG\ITEM.OBJ
C:\USERS\RUBYB_000\DOCUMENTS\A-UNIVERSITY\2NDYEAR\SEMESTER 2\COS30031\LAB\SPIKE8\ZORKISH\ZORKISH\DEBUG\LOCATION.OBJ
C:\USERS\RUBYB_000\DOCUMENTS\A-UNIVERSITY\2NDYEAR\SEMESTER 2\COS30031\LAB\SPIKE8\ZORKISH\ZORKISH\DEBUG\MOVECOMMAND.OBJ
C:\USERS\RUBYB_000\DOCUMENTS\A-UNIVERSITY\2NDYEAR\SEMESTER 2\COS30031\LAB\SPIKE8\ZORKISH\ZORKISH\DEBUG\COMMAND.OBJ
C:\USERS\RUBYB_000\DOCUMENTS\A-UNIVERSITY\2NDYEAR\SEMESTER 2\COS30031\LAB\SPIKE8\ZORKISH\ZORKISH\DEBUG\COMMANDPROCESSING.OBJ
C:\USERS\RUBYB_000\DOCUMENTS\A-UNIVERSITY\2NDYEAR\SEMESTER 2\COS30031\LAB\SPIKE8\ZORKISH\ZORKISH\DEBUG\GAMEWORLD.OBJ
C:\USERS\RUBYB_000\DOCUMENTS\A-UNIVERSITY\2NDYEAR\SEMESTER 2\COS30031\LAB\SPIKE8\ZORKISH\ZORKISH\DEBUG\INVENTORY.OBJ
C:\USERS\RUBYB_000\DOCUMENTS\A-UNIVERSITY\2NDYEAR\SEMESTER 2\COS30031\LAB\SPIKE8\ZORKISH\ZORKISH\DEBUG\PLAYER.OBJ
C:\USERS\RUBYB_000\DOCUMENTS\A-UNIVERSITY\2NDYEAR\SEMESTER 2\COS30031\LAB\SPIKE8\ZORKISH\ZORKISH\DEBUG\SELECTADVENTURE.OBJ
C:\USERS\RUBYB_000\DOCUMENTS\A-UNIVERSITY\2NDYEAR\SEMESTER 2\COS30031\LAB\SPIKE8\ZORKISH\ZORKISH\DEBUG\ZORKISH.OBJ
^C:\USERS\RUBYB_000\DOCUMENTS\A-UNIVERSITY\2NDYEAR\SEMESTER 2\COS30031\LAB\SPIKE8\ZORKISH\ZORKISH\GAMEPLAY.CPP|C:\USERS\RUBYB_000\DOCUMENTS\A-UNIVERSITY\2NDYEAR\SEMESTER 2\COS30031\LAB\SPIKE8\ZORKISH\ZORKISH\LOOKCOMMAND.CPP
C:\USERS\RUBYB_000\DOCUMENTS\A-UNIVERSITY\2NDYEAR\SEMESTER 2\COS30031\LAB\SPIKE8\ZORKISH\ZORKISH\DEBUG\VC140.PDB
C:\USERS\RUBYB_000\DOCUMENTS\A-UNIVERSITY\2NDYEAR\SEMESTER 2\COS30031\LAB\SPIKE8\ZORKISH\ZORKISH\DEBUG\VC140.IDB
C:\USERS\RUBYB_000\DOCUMENTS\A-UNIVERSITY\2NDYEAR\SEMESTER 2\COS30031\LAB\SPIKE8\ZORKISH\ZORKISH\DEBUG\LOOKCOMMAND.OBJ
C:\USERS\RUBYB_000\DOCUMENTS\A-UNIVERSITY\2NDYEAR\SEMESTER 2\COS30031\LAB\SPIKE8\ZORKISH\ZORKISH\DEBUG\GAMEPLAY.OBJ
^C:\USERS\RUBYB_000\DOCUMENTS\A-UNIVERSITY\2NDYEAR\SEMESTER 2\COS30031\LAB\SPIKE8\ZORKISH\ZORKISH\COMMAND.CPP|C:\USERS\RUBYB_000\DOCUMENTS\A-UNIVERSITY\2NDYEAR\SEMESTER 2\COS30031\LAB\SPIKE8\ZORKISH\ZORKISH\COMMANDPROCESSING.CPP|C:\USERS\RUBYB_000\DOCUMENTS\A-UNIVERSITY\2NDYEAR\SEMESTER 2\COS30031\LAB\SPIKE8\ZORKISH\ZORKISH\GAMEPLAY.CPP|C:\USERS\RUBYB_000\DOCUMENTS\A-UNIVERSITY\2NDYEAR\SEMESTER 2\COS30031\LAB\SPIKE8\ZORKISH\ZORKISH\GAMEWORLD.CPP|C:\USERS\RUBYB_000\DOCUMENTS\A-UNIVERSITY\2NDYEAR\SEMESTER 2\COS30031\LAB\SPIKE8\ZORKISH\ZORKISH\LOCATION.CPP|C:\USERS\RUBYB_000\DOCUMENTS\A-UNIVERSITY\2NDYEAR\SEMESTER 2\COS30031\LAB\SPIKE8\ZORKISH\ZORKISH\LOOKCOMMAND.CPP|C:\USERS\RUBYB_000\DOCUMENTS\A-UNIVERSITY\2NDYEAR\SEMESTER 2\COS30031\LAB\SPIKE8\ZORKISH\ZORKISH\MOVECOMMAND.CPP|C:\USERS\RUBYB_000\DOCUMENTS\A-UNIVERSITY\2NDYEAR\SEMESTER 2\COS30031\LAB\SPIKE8\ZORKISH\ZORKISH\PLAYER.CPP|C:\USERS\RUBYB_000\DOCUMENTS\A-UNIVERSITY\2NDYEAR\SEMESTER 2\COS30031\LAB\SPIKE8\ZORKISH\ZORKISH\SELECTADVENTURE.CPP|C:\USERS\RUBYB_000\DOCUMENTS\A-UNIVERSITY\2NDYEAR\SEMESTER 2\COS30031\LAB\SPIKE8\ZORKISH\ZORKISH\ZORKISH.CPP
C:\USERS\RUBYB_000\DOCUMENTS\A-UNIVERSITY\2NDYEAR\SEMESTER 2\COS30031\LAB\SPIKE8\ZORKISH\ZORKISH\DEBUG\VC140.PDB
C:\USERS\RUBYB_000\DOCUMENTS\A-UNIVERSITY\2NDYEAR\SEMESTER 2\COS30031\LAB\SPIKE8\ZORKISH\ZORKISH\DEBUG\VC140.IDB
C:\USERS\RUBYB_000\DOCUMENTS\A-UNIVERSITY\2NDYEAR\SEMESTER 2\COS30031\LAB\SPIKE8\ZORKISH\ZORKISH\DEBUG\GAMEPLAY.OBJ
C:\USERS\RUBYB_000\DOCUMENTS\A-UNIVERSITY\2NDYEAR\SEMESTER 2\COS30031\LAB\SPIKE8\ZORKISH\ZORKISH\DEBUG\LOCATION.OBJ
^C:\USERS\RUBYB_000\DOCUMENTS\A-UNIVERSITY\2NDYEAR\SEMESTER 2\COS30031\LAB\SPIKE8\ZORKISH\ZORKISH\GAMEPLAY.CPP|C:\USERS\RUBYB_000\DOCUMENTS\A-UNIVERSITY\2NDYEAR\SEMESTER 2\COS30031\LAB\SPIKE8\ZORKISH\ZORKISH\LOOKCOMMAND.CPP|C:\USERS\RUBYB_000\DOCUMENTS\A-UNIVERSITY\2NDYEAR\SEMESTER 2\COS30031\LAB\SPIKE8\ZORKISH\ZORKISH\SELECTADVENTURE.CPP
C:\USERS\RUBYB_000\DOCUMENTS\A-UNIVERSITY\2NDYEAR\SEMESTER 2\COS30031\LAB\SPIKE8\ZORKISH\ZORKISH\DEBUG\VC140.PDB
C:\USERS\RUBYB_000\DOCUMENTS\A-UNIVERSITY\2NDYEAR\SEMESTER 2\COS30031\LAB\SPIKE8\ZORKISH\ZORKISH\DEBUG\VC140.IDB
C:\USERS\RUBYB_000\DOCUMENTS\A-UNIVERSITY\2NDYEAR\SEMESTER 2\COS30031\LAB\SPIKE8\ZORKISH\ZORKISH\DEBUG\GAMEPLAY.OBJ
C:\USERS\RUBYB_000\DOCUMENTS\A-UNIVERSITY\2NDYEAR\SEMESTER 2\COS30031\LAB\SPIKE8\ZORKISH\ZORKISH\DEBUG\LOOKCOMMAND.OBJ
^C:\USERS\RUBYB_000\DOCUMENTS\A-UNIVERSITY\2NDYEAR\SEMESTER 2\COS30031\LAB\SPIKE8\ZORKISH\ZORKISH\GAMEPLAY.CPP|C:\USERS\RUBYB_000\DOCUMENTS\A-UNIVERSITY\2NDYEAR\SEMESTER 2\COS30031\LAB\SPIKE8\ZORKISH\ZORKISH\MOVECOMMAND.CPP
C:\USERS\RUBYB_000\DOCUMENTS\A-UNIVERSITY\2NDYEAR\SEMESTER 2\COS30031\LAB\SPIKE8\ZORKISH\ZORKISH\DEBUG\VC140.PDB
C:\USERS\RUBYB_000\DOCUMENTS\A-UNIVERSITY\2NDYEAR\SEMESTER 2\COS30031\LAB\SPIKE8\ZORKISH\ZORKISH\DEBUG\VC140.IDB
C:\USERS\RUBYB_000\DOCUMENTS\A-UNIVERSITY\2NDYEAR\SEMESTER 2\COS30031\LAB\SPIKE8\ZORKISH\ZORKISH\DEBUG\GAMEPLAY.OBJ
C:\USERS\RUBYB_000\DOCUMENTS\A-UNIVERSITY\2NDYEAR\SEMESTER 2\COS30031\LAB\SPIKE8\ZORKISH\ZORKISH\DEBUG\MOVECOMMAND.OBJ
^C:\USERS\RUBYB_000\DOCUMENTS\A-UNIVERSITY\2NDYEAR\SEMESTER 2\COS30031\LAB\SPIKE8\ZORKISH\ZORKISH\COMMANDPROCESSING.CPP|C:\USERS\RUBYB_000\DOCUMENTS\A-UNIVERSITY\2NDYEAR\SEMESTER 2\COS30031\LAB\SPIKE8\ZORKISH\ZORKISH\GAMEPLAY.CPP
C:\USERS\RUBYB_000\DOCUMENTS\A-UNIVERSITY\2NDYEAR\SEMESTER 2\COS30031\LAB\SPIKE8\ZORKISH\ZORKISH\DEBUG\VC140.PDB
C:\USERS\RUBYB_000\DOCUMENTS\A-UNIVERSITY\2NDYEAR\SEMESTER 2\COS30031\LAB\SPIKE8\ZORKISH\ZORKISH\DEBUG\VC140.IDB
C:\USERS\RUBYB_000\DOCUMENTS\A-UNIVERSITY\2NDYEAR\SEMESTER 2\COS30031\LAB\SPIKE8\ZORKISH\ZORKISH\DEBUG\COMMANDPROCESSING.OBJ
C:\USERS\RUBYB_000\DOCUMENTS\A-UNIVERSITY\2NDYEAR\SEMESTER 2\COS30031\LAB\SPIKE8\ZORKISH\ZORKISH\DEBUG\GAMEPLAY.OBJ
^C:\USERS\RUBYB_000\DOCUMENTS\A-UNIVERSITY\2NDYEAR\SEMESTER 2\COS30031\LAB\SPIKE8\ZORKISH\ZORKISH\COMMAND.CPP|C:\USERS\RUBYB_000\DOCUMENTS\A-UNIVERSITY\2NDYEAR\SEMESTER 2\COS30031\LAB\SPIKE8\ZORKISH\ZORKISH\COMMANDPROCESSING.CPP|C:\USERS\RUBYB_000\DOCUMENTS\A-UNIVERSITY\2NDYEAR\SEMESTER 2\COS30031\LAB\SPIKE8\ZORKISH\ZORKISH\GAMEOBJECT.CPP|C:\USERS\RUBYB_000\DOCUMENTS\A-UNIVERSITY\2NDYEAR\SEMESTER 2\COS30031\LAB\SPIKE8\ZORKISH\ZORKISH\GAMEPLAY.CPP|C:\USERS\RUBYB_000\DOCUMENTS\A-UNIVERSITY\2NDYEAR\SEMESTER 2\COS30031\LAB\SPIKE8\ZORKISH\ZORKISH\GAMEWORLD.CPP|C:\USERS\RUBYB_000\DOCUMENTS\A-UNIVERSITY\2NDYEAR\SEMESTER 2\COS30031\LAB\SPIKE8\ZORKISH\ZORKISH\IDENTIFIABLEOBJECT.CPP|C:\USERS\RUBYB_000\DOCUMENTS\A-UNIVERSITY\2NDYEAR\SEMESTER 2\COS30031\LAB\SPIKE8\ZORKISH\ZORKISH\IHAVEINVENTORY.CPP|C:\USERS\RUBYB_000\DOCUMENTS\A-UNIVERSITY\2NDYEAR\SEMESTER 2\COS30031\LAB\SPIKE8\ZORKISH\ZORKISH\INVENTORY.CPP|C:\USERS\RUBYB_000\DOCUMENTS\A-UNIVERSITY\2NDYEAR\SEMESTER 2\COS30031\LAB\SPIKE8\ZORKISH\ZORKISH\ITEM.CPP|C:\USERS\RUBYB_000\DOCUMENTS\A-UNIVERSITY\2NDYEAR\SEMESTER 2\COS30031\LAB\SPIKE8\ZORKISH\ZORKISH\LOCATION.CPP|C:\USERS\RUBYB_000\DOCUMENTS\A-UNIVERSITY\2NDYEAR\SEMESTER 2\COS30031\LAB\SPIKE8\ZORKISH\ZORKISH\LOOKCOMMAND.CPP|C:\USERS\RUBYB_000\DOCUMENTS\A-UNIVERSITY\2NDYEAR\SEMESTER 2\COS30031\LAB\SPIKE8\ZORKISH\ZORKISH\MOVECOMMAND.CPP|C:\USERS\RUBYB_000\DOCUMENTS\A-UNIVERSITY\2NDYEAR\SEMESTER 2\COS30031\LAB\SPIKE8\ZORKISH\ZORKISH\PATH.CPP|C:\USERS\RUBYB_000\DOCUMENTS\A-UNIVERSITY\2NDYEAR\SEMESTER 2\COS30031\LAB\SPIKE8\ZORKISH\ZORKISH\PLAYER.CPP|C:\USERS\RUBYB_000\DOCUMENTS\A-UNIVERSITY\2NDYEAR\SEMESTER 2\COS30031\LAB\SPIKE8\ZORKISH\ZORKISH\SELECTADVENTURE.CPP|C:\USERS\RUBYB_000\DOCUMENTS\A-UNIVERSITY\2NDYEAR\SEMESTER 2\COS30031\LAB\SPIKE8\ZORKISH\ZORKISH\ZORKISH.CPP
C:\USERS\RUBYB_000\DOCUMENTS\A-UNIVERSITY\2NDYEAR\SEMESTER 2\COS30031\LAB\SPIKE8\ZORKISH\ZORKISH\DEBUG\VC140.PDB
C:\USERS\RUBYB_000\DOCUMENTS\A-UNIVERSITY\2NDYEAR\SEMESTER 2\COS30031\LAB\SPIKE8\ZORKISH\ZORKISH\DEBUG\VC140.IDB
C:\USERS\RUBYB_000\DOCUMENTS\A-UNIVERSITY\2NDYEAR\SEMESTER 2\COS30031\LAB\SPIKE8\ZORKISH\ZORKISH\DEBUG\COMMANDPROCESSING.OBJ
C:\USERS\RUBYB_000\DOCUMENTS\A-UNIVERSITY\2NDYEAR\SEMESTER 2\COS30031\LAB\SPIKE8\ZORKISH\ZORKISH\DEBUG\GAMEPLAY.OBJ
C:\USERS\RUBYB_000\DOCUMENTS\A-UNIVERSITY\2NDYEAR\SEMESTER 2\COS30031\LAB\SPIKE8\ZORKISH\ZORKISH\DEBUG\LOOKCOMMAND.OBJ
C:\USERS\RUBYB_000\DOCUMENTS\A-UNIVERSITY\2NDYEAR\SEMESTER 2\COS30031\LAB\SPIKE8\ZORKISH\ZORKISH\DEBUG\MOVECOMMAND.OBJ
C:\USERS\RUBYB_000\DOCUMENTS\A-UNIVERSITY\2NDYEAR\SEMESTER 2\COS30031\LAB\SPIKE8\ZORKISH\ZORKISH\DEBUG\INVENTORY.OBJ
C:\USERS\RUBYB_000\DOCUMENTS\A-UNIVERSITY\2NDYEAR\SEMESTER 2\COS30031\LAB\SPIKE8\ZORKISH\ZORKISH\DEBUG\LOCATION.OBJ
C:\USERS\RUBYB_000\DOCUMENTS\A-UNIVERSITY\2NDYEAR\SEMESTER 2\COS30031\LAB\SPIKE8\ZORKISH\ZORKISH\DEBUG\PLAYER.OBJ
C:\USERS\RUBYB_000\DOCUMENTS\A-UNIVERSITY\2NDYEAR\SEMESTER 2\COS30031\LAB\SPIKE8\ZORKISH\ZORKISH\DEBUG\COMMAND.OBJ
C:\USERS\RUBYB_000\DOCUMENTS\A-UNIVERSITY\2NDYEAR\SEMESTER 2\COS30031\LAB\SPIKE8\ZORKISH\ZORKISH\DEBUG\GAMEOBJECT.OBJ
C:\USERS\RUBYB_000\DOCUMENTS\A-UNIVERSITY\2NDYEAR\SEMESTER 2\COS30031\LAB\SPIKE8\ZORKISH\ZORKISH\DEBUG\IDENTIFIABLEOBJECT.OBJ
C:\USERS\RUBYB_000\DOCUMENTS\A-UNIVERSITY\2NDYEAR\SEMESTER 2\COS30031\LAB\SPIKE8\ZORKISH\ZORKISH\DEBUG\GAMEWORLD.OBJ
C:\USERS\RUBYB_000\DOCUMENTS\A-UNIVERSITY\2NDYEAR\SEMESTER 2\COS30031\LAB\SPIKE8\ZORKISH\ZORKISH\DEBUG\IHAVEINVENTORY.OBJ
C:\USERS\RUBYB_000\DOCUMENTS\A-UNIVERSITY\2NDYEAR\SEMESTER 2\COS30031\LAB\SPIKE8\ZORKISH\ZORKISH\DEBUG\ITEM.OBJ
C:\USERS\RUBYB_000\DOCUMENTS\A-UNIVERSITY\2NDYEAR\SEMESTER 2\COS30031\LAB\SPIKE8\ZORKISH\ZORKISH\DEBUG\PATH.OBJ
C:\USERS\RUBYB_000\DOCUMENTS\A-UNIVERSITY\2NDYEAR\SEMESTER 2\COS30031\LAB\SPIKE8\ZORKISH\ZORKISH\DEBUG\SELECTADVENTURE.OBJ
C:\USERS\RUBYB_000\DOCUMENTS\A-UNIVERSITY\2NDYEAR\SEMESTER 2\COS30031\LAB\SPIKE8\ZORKISH\ZORKISH\DEBUG\ZORKISH.OBJ
^C:\USERS\RUBYB_000\DOCUMENTS\A-UNIVERSITY\2NDYEAR\SEMESTER 2\COS30031\LAB\SPIKE8\ZORKISH\ZORKISH\GAMEOBJECT.CPP|C:\USERS\RUBYB_000\DOCUMENTS\A-UNIVERSITY\2NDYEAR\SEMESTER 2\COS30031\LAB\SPIKE8\ZORKISH\ZORKISH\IDENTIFIABLEOBJECT.CPP
C:\USERS\RUBYB_000\DOCUMENTS\A-UNIVERSITY\2NDYEAR\SEMESTER 2\COS30031\LAB\SPIKE8\ZORKISH\ZORKISH\DEBUG\VC140.PDB
C:\USERS\RUBYB_000\DOCUMENTS\A-UNIVERSITY\2NDYEAR\SEMESTER 2\COS30031\LAB\SPIKE8\ZORKISH\ZORKISH\DEBUG\VC140.IDB
^C:\USERS\RUBYB_000\DOCUMENTS\A-UNIVERSITY\2NDYEAR\SEMESTER 2\COS30031\LAB\SPIKE8\ZORKISH\ZORKISH\COMMANDPROCESSING.CPP|C:\USERS\RUBYB_000\DOCUMENTS\A-UNIVERSITY\2NDYEAR\SEMESTER 2\COS30031\LAB\SPIKE8\ZORKISH\ZORKISH\GAMEPLAY.CPP|C:\USERS\RUBYB_000\DOCUMENTS\A-UNIVERSITY\2NDYEAR\SEMESTER 2\COS30031\LAB\SPIKE8\ZORKISH\ZORKISH\SELECTADVENTURE.CPP
C:\USERS\RUBYB_000\DOCUMENTS\A-UNIVERSITY\2NDYEAR\SEMESTER 2\COS30031\LAB\SPIKE8\ZORKISH\ZORKISH\DEBUG\VC140.PDB
C:\USERS\RUBYB_000\DOCUMENTS\A-UNIVERSITY\2NDYEAR\SEMESTER 2\COS30031\LAB\SPIKE8\ZORKISH\ZORKISH\DEBUG\VC140.IDB
C:\USERS\RUBYB_000\DOCUMENTS\A-UNIVERSITY\2NDYEAR\SEMESTER 2\COS30031\LAB\SPIKE8\ZORKISH\ZORKISH\DEBUG\GAMEPLAY.OBJ
C:\USERS\RUBYB_000\DOCUMENTS\A-UNIVERSITY\2NDYEAR\SEMESTER 2\COS30031\LAB\SPIKE8\ZORKISH\ZORKISH\DEBUG\COMMANDPROCESSING.OBJ
^C:\USERS\RUBYB_000\DOCUMENTS\A-UNIVERSITY\2NDYEAR\SEMESTER 2\COS30031\LAB\SPIKE8\ZORKISH\ZORKISH\COMMANDPROCESSING.CPP|C:\USERS\RUBYB_000\DOCUMENTS\A-UNIVERSITY\2NDYEAR\SEMESTER 2\COS30031\LAB\SPIKE8\ZORKISH\ZORKISH\LOOKCOMMAND.CPP
C:\USERS\RUBYB_000\DOCUMENTS\A-UNIVERSITY\2NDYEAR\SEMESTER 2\COS30031\LAB\SPIKE8\ZORKISH\ZORKISH\DEBUG\VC140.PDB
C:\USERS\RUBYB_000\DOCUMENTS\A-UNIVERSITY\2NDYEAR\SEMESTER 2\COS30031\LAB\SPIKE8\ZORKISH\ZORKISH\DEBUG\VC140.IDB
C:\USERS\RUBYB_000\DOCUMENTS\A-UNIVERSITY\2NDYEAR\SEMESTER 2\COS30031\LAB\SPIKE8\ZORKISH\ZORKISH\DEBUG\COMMANDPROCESSING.OBJ
^C:\USERS\RUBYB_000\DOCUMENTS\A-UNIVERSITY\2NDYEAR\SEMESTER 2\COS30031\LAB\SPIKE8\ZORKISH\ZORKISH\COMMANDPROCESSING.CPP|C:\USERS\RUBYB_000\DOCUMENTS\A-UNIVERSITY\2NDYEAR\SEMESTER 2\COS30031\LAB\SPIKE8\ZORKISH\ZORKISH\IDENTIFIABLEOBJECT.CPP
C:\USERS\RUBYB_000\DOCUMENTS\A-UNIVERSITY\2NDYEAR\SEMESTER 2\COS30031\LAB\SPIKE8\ZORKISH\ZORKISH\DEBUG\VC140.PDB
C:\USERS\RUBYB_000\DOCUMENTS\A-UNIVERSITY\2NDYEAR\SEMESTER 2\COS30031\LAB\SPIKE8\ZORKISH\ZORKISH\DEBUG\VC140.IDB
C:\USERS\RUBYB_000\DOCUMENTS\A-UNIVERSITY\2NDYEAR\SEMESTER 2\COS30031\LAB\SPIKE8\ZORKISH\ZORKISH\DEBUG\COMMANDPROCESSING.OBJ
C:\USERS\RUBYB_000\DOCUMENTS\A-UNIVERSITY\2NDYEAR\SEMESTER 2\COS30031\LAB\SPIKE8\ZORKISH\ZORKISH\DEBUG\IDENTIFIABLEOBJECT.OBJ
^C:\USERS\RUBYB_000\DOCUMENTS\A-UNIVERSITY\2NDYEAR\SEMESTER 2\COS30031\LAB\SPIKE8\ZORKISH\ZORKISH\IDENTIFIABLEOBJECT.CPP|C:\USERS\RUBYB_000\DOCUMENTS\A-UNIVERSITY\2NDYEAR\SEMESTER 2\COS30031\LAB\SPIKE8\ZORKISH\ZORKISH\LOOKCOMMAND.CPP
C:\USERS\RUBYB_000\DOCUMENTS\A-UNIVERSITY\2NDYEAR\SEMESTER 2\COS30031\LAB\SPIKE8\ZORKISH\ZORKISH\DEBUG\VC140.PDB
C:\USERS\RUBYB_000\DOCUMENTS\A-UNIVERSITY\2NDYEAR\SEMESTER 2\COS30031\LAB\SPIKE8\ZORKISH\ZORKISH\DEBUG\VC140.IDB
C:\USERS\RUBYB_000\DOCUMENTS\A-UNIVERSITY\2NDYEAR\SEMESTER 2\COS30031\LAB\SPIKE8\ZORKISH\ZORKISH\DEBUG\IDENTIFIABLEOBJECT.OBJ
C:\USERS\RUBYB_000\DOCUMENTS\A-UNIVERSITY\2NDYEAR\SEMESTER 2\COS30031\LAB\SPIKE8\ZORKISH\ZORKISH\DEBUG\LOOKCOMMAND.OBJ
^C:\USERS\RUBYB_000\DOCUMENTS\A-UNIVERSITY\2NDYEAR\SEMESTER 2\COS30031\LAB\SPIKE8\ZORKISH\ZORKISH\COMMANDPROCESSING.CPP|C:\USERS\RUBYB_000\DOCUMENTS\A-UNIVERSITY\2NDYEAR\SEMESTER 2\COS30031\LAB\SPIKE8\ZORKISH\ZORKISH\SELECTADVENTURE.CPP
C:\USERS\RUBYB_000\DOCUMENTS\A-UNIVERSITY\2NDYEAR\SEMESTER 2\COS30031\LAB\SPIKE8\ZORKISH\ZORKISH\DEBUG\VC140.PDB
C:\USERS\RUBYB_000\DOCUMENTS\A-UNIVERSITY\2NDYEAR\SEMESTER 2\COS30031\LAB\SPIKE8\ZORKISH\ZORKISH\DEBUG\VC140.IDB
C:\USERS\RUBYB_000\DOCUMENTS\A-UNIVERSITY\2NDYEAR\SEMESTER 2\COS30031\LAB\SPIKE8\ZORKISH\ZORKISH\DEBUG\COMMANDPROCESSING.OBJ
^C:\USERS\RUBYB_000\DOCUMENTS\A-UNIVERSITY\2NDYEAR\SEMESTER 2\COS30031\LAB\SPIKE8\ZORKISH\ZORKISH\COMMAND.CPP|C:\USERS\RUBYB_000\DOCUMENTS\A-UNIVERSITY\2NDYEAR\SEMESTER 2\COS30031\LAB\SPIKE8\ZORKISH\ZORKISH\COMMANDPROCESSING.CPP|C:\USERS\RUBYB_000\DOCUMENTS\A-UNIVERSITY\2NDYEAR\SEMESTER 2\COS30031\LAB\SPIKE8\ZORKISH\ZORKISH\GAMEOBJECT.CPP|C:\USERS\RUBYB_000\DOCUMENTS\A-UNIVERSITY\2NDYEAR\SEMESTER 2\COS30031\LAB\SPIKE8\ZORKISH\ZORKISH\GAMEPLAY.CPP|C:\USERS\RUBYB_000\DOCUMENTS\A-UNIVERSITY\2NDYEAR\SEMESTER 2\COS30031\LAB\SPIKE8\ZORKISH\ZORKISH\GAMEWORLD.CPP|C:\USERS\RUBYB_000\DOCUMENTS\A-UNIVERSITY\2NDYEAR\SEMESTER 2\COS30031\LAB\SPIKE8\ZORKISH\ZORKISH\IHAVEINVENTORY.CPP|C:\USERS\RUBYB_000\DOCUMENTS\A-UNIVERSITY\2NDYEAR\SEMESTER 2\COS30031\LAB\SPIKE8\ZORKISH\ZORKISH\INVENTORY.CPP|C:\USERS\RUBYB_000\DOCUMENTS\A-UNIVERSITY\2NDYEAR\SEMESTER 2\COS30031\LAB\SPIKE8\ZORKISH\ZORKISH\ITEM.CPP|C:\USERS\RUBYB_000\DOCUMENTS\A-UNIVERSITY\2NDYEAR\SEMESTER 2\COS30031\LAB\SPIKE8\ZORKISH\ZORKISH\LOCATION.CPP|C:\USERS\RUBYB_000\DOCUMENTS\A-UNIVERSITY\2NDYEAR\SEMESTER 2\COS30031\LAB\SPIKE8\ZORKISH\ZORKISH\LOOKCOMMAND.CPP|C:\USERS\RUBYB_000\DOCUMENTS\A-UNIVERSITY\2NDYEAR\SEMESTER 2\COS30031\LAB\SPIKE8\ZORKISH\ZORKISH\MOVECOMMAND.CPP|C:\USERS\RUBYB_000\DOCUMENTS\A-UNIVERSITY\2NDYEAR\SEMESTER 2\COS30031\LAB\SPIKE8\ZORKISH\ZORKISH\PATH.CPP|C:\USERS\RUBYB_000\DOCUMENTS\A-UNIVERSITY\2NDYEAR\SEMESTER 2\COS30031\LAB\SPIKE8\ZORKISH\ZORKISH\PLAYER.CPP|C:\USERS\RUBYB_000\DOCUMENTS\A-UNIVERSITY\2NDYEAR\SEMESTER 2\COS30031\LAB\SPIKE8\ZORKISH\ZORKISH\SELECTADVENTURE.CPP|C:\USERS\RUBYB_000\DOCUMENTS\A-UNIVERSITY\2NDYEAR\SEMESTER 2\COS30031\LAB\SPIKE8\ZORKISH\ZORKISH\ZORKISH.CPP
C:\USERS\RUBYB_000\DOCUMENTS\A-UNIVERSITY\2NDYEAR\SEMESTER 2\COS30031\LAB\SPIKE8\ZORKISH\ZORKISH\DEBUG\VC140.PDB
C:\USERS\RUBYB_000\DOCUMENTS\A-UNIVERSITY\2NDYEAR\SEMESTER 2\COS30031\LAB\SPIKE8\ZORKISH\ZORKISH\DEBUG\VC140.IDB
C:\USERS\RUBYB_000\DOCUMENTS\A-UNIVERSITY\2NDYEAR\SEMESTER 2\COS30031\LAB\SPIKE8\ZORKISH\ZORKISH\DEBUG\GAMEOBJECT.OBJ
C:\USERS\RUBYB_000\DOCUMENTS\A-UNIVERSITY\2NDYEAR\SEMESTER 2\COS30031\LAB\SPIKE8\ZORKISH\ZORKISH\DEBUG\INVENTORY.OBJ
^C:\USERS\RUBYB_000\DOCUMENTS\A-UNIVERSITY\2NDYEAR\SEMESTER 2\COS30031\LAB\SPIKE8\ZORKISH\ZORKISH\COMMAND.CPP|C:\USERS\RUBYB_000\DOCUMENTS\A-UNIVERSITY\2NDYEAR\SEMESTER 2\COS30031\LAB\SPIKE8\ZORKISH\ZORKISH\COMMANDPROCESSING.CPP|C:\USERS\RUBYB_000\DOCUMENTS\A-UNIVERSITY\2NDYEAR\SEMESTER 2\COS30031\LAB\SPIKE8\ZORKISH\ZORKISH\GAMEPLAY.CPP|C:\USERS\RUBYB_000\DOCUMENTS\A-UNIVERSITY\2NDYEAR\SEMESTER 2\COS30031\LAB\SPIKE8\ZORKISH\ZORKISH\GAMEWORLD.CPP|C:\USERS\RUBYB_000\DOCUMENTS\A-UNIVERSITY\2NDYEAR\SEMESTER 2\COS30031\LAB\SPIKE8\ZORKISH\ZORKISH\IHAVEINVENTORY.CPP|C:\USERS\RUBYB_000\DOCUMENTS\A-UNIVERSITY\2NDYEAR\SEMESTER 2\COS30031\LAB\SPIKE8\ZORKISH\ZORKISH\INVENTORY.CPP|C:\USERS\RUBYB_000\DOCUMENTS\A-UNIVERSITY\2NDYEAR\SEMESTER 2\COS30031\LAB\SPIKE8\ZORKISH\ZORKISH\LOCATION.CPP|C:\USERS\RUBYB_000\DOCUMENTS\A-UNIVERSITY\2NDYEAR\SEMESTER 2\COS30031\LAB\SPIKE8\ZORKISH\ZORKISH\LOOKCOMMAND.CPP|C:\USERS\RUBYB_000\DOCUMENTS\A-UNIVERSITY\2NDYEAR\SEMESTER 2\COS30031\LAB\SPIKE8\ZORKISH\ZORKISH\MOVECOMMAND.CPP|C:\USERS\RUBYB_000\DOCUMENTS\A-UNIVERSITY\2NDYEAR\SEMESTER 2\COS30031\LAB\SPIKE8\ZORKISH\ZORKISH\PLAYER.CPP|C:\USERS\RUBYB_000\DOCUMENTS\A-UNIVERSITY\2NDYEAR\SEMESTER 2\COS30031\LAB\SPIKE8\ZORKISH\ZORKISH\SELECTADVENTURE.CPP|C:\USERS\RUBYB_000\DOCUMENTS\A-UNIVERSITY\2NDYEAR\SEMESTER 2\COS30031\LAB\SPIKE8\ZORKISH\ZORKISH\ZORKISH.CPP
C:\USERS\RUBYB_000\DOCUMENTS\A-UNIVERSITY\2NDYEAR\SEMESTER 2\COS30031\LAB\SPIKE8\ZORKISH\ZORKISH\DEBUG\VC140.PDB
C:\USERS\RUBYB_000\DOCUMENTS\A-UNIVERSITY\2NDYEAR\SEMESTER 2\COS30031\LAB\SPIKE8\ZORKISH\ZORKISH\DEBUG\VC140.IDB
C:\USERS\RUBYB_000\DOCUMENTS\A-UNIVERSITY\2NDYEAR\SEMESTER 2\COS30031\LAB\SPIKE8\ZORKISH\ZORKISH\DEBUG\INVENTORY.OBJ
C:\USERS\RUBYB_000\DOCUMENTS\A-UNIVERSITY\2NDYEAR\SEMESTER 2\COS30031\LAB\SPIKE8\ZORKISH\ZORKISH\DEBUG\LOCATION.OBJ
C:\USERS\RUBYB_000\DOCUMENTS\A-UNIVERSITY\2NDYEAR\SEMESTER 2\COS30031\LAB\SPIKE8\ZORKISH\ZORKISH\DEBUG\PLAYER.OBJ
^C:\USERS\RUBYB_000\DOCUMENTS\A-UNIVERSITY\2NDYEAR\SEMESTER 2\COS30031\LAB\SPIKE8\ZORKISH\ZORKISH\COMMAND.CPP|C:\USERS\RUBYB_000\DOCUMENTS\A-UNIVERSITY\2NDYEAR\SEMESTER 2\COS30031\LAB\SPIKE8\ZORKISH\ZORKISH\COMMANDPROCESSING.CPP|C:\USERS\RUBYB_000\DOCUMENTS\A-UNIVERSITY\2NDYEAR\SEMESTER 2\COS30031\LAB\SPIKE8\ZORKISH\ZORKISH\GAMEPLAY.CPP|C:\USERS\RUBYB_000\DOCUMENTS\A-UNIVERSITY\2NDYEAR\SEMESTER 2\COS30031\LAB\SPIKE8\ZORKISH\ZORKISH\LOOKCOMMAND.CPP|C:\USERS\RUBYB_000\DOCUMENTS\A-UNIVERSITY\2NDYEAR\SEMESTER 2\COS30031\LAB\SPIKE8\ZORKISH\ZORKISH\MOVECOMMAND.CPP|C:\USERS\RUBYB_000\DOCUMENTS\A-UNIVERSITY\2NDYEAR\SEMESTER 2\COS30031\LAB\SPIKE8\ZORKISH\ZORKISH\PLAYER.CPP|C:\USERS\RUBYB_000\DOCUMENTS\A-UNIVERSITY\2NDYEAR\SEMESTER 2\COS30031\LAB\SPIKE8\ZORKISH\ZORKISH\SELECTADVENTURE.CPP|C:\USERS\RUBYB_000\DOCUMENTS\A-UNIVERSITY\2NDYEAR\SEMESTER 2\COS30031\LAB\SPIKE8\ZORKISH\ZORKISH\ZORKISH.CPP
C:\USERS\RUBYB_000\DOCUMENTS\A-UNIVERSITY\2NDYEAR\SEMESTER 2\COS30031\LAB\SPIKE8\ZORKISH\ZORKISH\DEBUG\VC140.PDB
C:\USERS\RUBYB_000\DOCUMENTS\A-UNIVERSITY\2NDYEAR\SEMESTER 2\COS30031\LAB\SPIKE8\ZORKISH\ZORKISH\DEBUG\VC140.IDB
C:\USERS\RUBYB_000\DOCUMENTS\A-UNIVERSITY\2NDYEAR\SEMESTER 2\COS30031\LAB\SPIKE8\ZORKISH\ZORKISH\DEBUG\COMMAND.OBJ
C:\USERS\RUBYB_000\DOCUMENTS\A-UNIVERSITY\2NDYEAR\SEMESTER 2\COS30031\LAB\SPIKE8\ZORKISH\ZORKISH\DEBUG\PLAYER.OBJ
C:\USERS\RUBYB_000\DOCUMENTS\A-UNIVERSITY\2NDYEAR\SEMESTER 2\COS30031\LAB\SPIKE8\ZORKISH\ZORKISH\DEBUG\GAMEPLAY.OBJ
^C:\USERS\RUBYB_000\DOCUMENTS\A-UNIVERSITY\2NDYEAR\SEMESTER 2\COS30031\LAB\SPIKE8\ZORKISH\ZORKISH\BAG.CPP|C:\USERS\RUBYB_000\DOCUMENTS\A-UNIVERSITY\2NDYEAR\SEMESTER 2\COS30031\LAB\SPIKE8\ZORKISH\ZORKISH\LOOKCOMMAND.CPP
C:\USERS\RUBYB_000\DOCUMENTS\A-UNIVERSITY\2NDYEAR\SEMESTER 2\COS30031\LAB\SPIKE8\ZORKISH\ZORKISH\DEBUG\VC140.PDB
C:\USERS\RUBYB_000\DOCUMENTS\A-UNIVERSITY\2NDYEAR\SEMESTER 2\COS30031\LAB\SPIKE8\ZORKISH\ZORKISH\DEBUG\VC140.IDB
C:\USERS\RUBYB_000\DOCUMENTS\A-UNIVERSITY\2NDYEAR\SEMESTER 2\COS30031\LAB\SPIKE8\ZORKISH\ZORKISH\DEBUG\BAG.OBJ
C:\USERS\RUBYB_000\DOCUMENTS\A-UNIVERSITY\2NDYEAR\SEMESTER 2\COS30031\LAB\SPIKE8\ZORKISH\ZORKISH\DEBUG\LOOKCOMMAND.OBJ
^C:\USERS\RUBYB_000\DOCUMENTS\A-UNIVERSITY\2NDYEAR\SEMESTER 2\COS30031\LAB\SPIKE8\ZORKISH\ZORKISH\BAG.CPP
C:\USERS\RUBYB_000\DOCUMENTS\A-UNIVERSITY\2NDYEAR\SEMESTER 2\COS30031\LAB\SPIKE8\ZORKISH\ZORKISH\DEBUG\VC140.PDB
