^C:\USERS\RUBYB_000\DOCUMENTS\A-UNIVERSITY\2NDYEAR\SEMESTER 2\COS30031\LAB\SPIKE3\SPIKE3\SPIKE3\DEBUG\SPIKE3.OBJ
C:\USERS\RUBYB_000\DOCUMENTS\A-UNIVERSITY\2NDYEAR\SEMESTER 2\COS30031\LAB\SPIKE3\SPIKE3\DEBUG\SPIKE3.ILK
C:\USERS\RUBYB_000\DOCUMENTS\A-UNIVERSITY\2NDYEAR\SEMESTER 2\COS30031\LAB\SPIKE3\SPIKE3\DEBUG\SPIKE3.EXE
C:\USERS\RUBYB_000\DOCUMENTS\A-UNIVERSITY\2NDYEAR\SEMESTER 2\COS30031\LAB\SPIKE3\SPIKE3\DEBUG\SPIKE3.PDB
