^C:\USERS\RUBYB_000\DOCUMENTS\COS30031\SPIKE9\ZORKISH\UNITTEST1\STDAFX.CPP
C:\USERS\RUBYB_000\DOCUMENTS\COS30031\SPIKE9\ZORKISH\UNITTEST1\DEBUG\UNITTEST1.PCH
C:\USERS\RUBYB_000\DOCUMENTS\COS30031\SPIKE9\ZORKISH\UNITTEST1\DEBUG\VC140.PDB
C:\USERS\RUBYB_000\DOCUMENTS\COS30031\SPIKE9\ZORKISH\UNITTEST1\DEBUG\VC140.IDB
C:\USERS\RUBYB_000\DOCUMENTS\COS30031\SPIKE9\ZORKISH\UNITTEST1\DEBUG\STDAFX.OBJ
^C:\USERS\RUBYB_000\DOCUMENTS\COS30031\SPIKE9\ZORKISH\UNITTEST1\UNITTEST1.CPP
C:\USERS\RUBYB_000\DOCUMENTS\COS30031\SPIKE9\ZORKISH\UNITTEST1\DEBUG\VC140.PDB
C:\USERS\RUBYB_000\DOCUMENTS\COS30031\SPIKE9\ZORKISH\UNITTEST1\DEBUG\VC140.IDB
C:\USERS\RUBYB_000\DOCUMENTS\COS30031\SPIKE9\ZORKISH\UNITTEST1\DEBUG\UNITTEST1.OBJ
