^C:\USERS\RUBYB_000\DOCUMENTS\A-UNIVERSITY\2NDYEAR\SEMESTER 2\COS30031\LAB\ZORKISH\ZORKISH\STDAFX.CPP
/c /ZI /nologo /W3 /WX- /sdl /Od /Oy- /D WIN32 /D _DEBUG /D _CONSOLE /D _UNICODE /D UNICODE /Gm /EHsc /RTC1 /MDd /GS /fp:precise /Zc:wchar_t /Zc:forScope /Zc:inline /Yc"stdafx.h" /Fp"DEBUG\ZORKISH.PCH" /Fo"DEBUG\\" /Fd"DEBUG\VC140.PDB" /Gd /TP /analyze- C:\USERS\RUBYB_000\DOCUMENTS\A-UNIVERSITY\2NDYEAR\SEMESTER 2\COS30031\LAB\ZORKISH\ZORKISH\STDAFX.CPP
^C:\USERS\RUBYB_000\DOCUMENTS\A-UNIVERSITY\2NDYEAR\SEMESTER 2\COS30031\LAB\ZORKISH\ZORKISH\ABOUT.CPP
/c /ZI /nologo /W3 /WX- /sdl /Od /Oy- /D WIN32 /D _DEBUG /D _CONSOLE /D _UNICODE /D UNICODE /Gm /EHsc /RTC1 /MDd /GS /fp:precise /Zc:wchar_t /Zc:forScope /Zc:inline /Yu"stdafx.h" /Fp"DEBUG\ZORKISH.PCH" /Fo"DEBUG\\" /Fd"DEBUG\VC140.PDB" /Gd /TP /analyze- C:\USERS\RUBYB_000\DOCUMENTS\A-UNIVERSITY\2NDYEAR\SEMESTER 2\COS30031\LAB\ZORKISH\ZORKISH\ABOUT.CPP
^C:\USERS\RUBYB_000\DOCUMENTS\A-UNIVERSITY\2NDYEAR\SEMESTER 2\COS30031\LAB\ZORKISH\ZORKISH\GAMEPLAY.CPP
/c /ZI /nologo /W3 /WX- /sdl /Od /Oy- /D WIN32 /D _DEBUG /D _CONSOLE /D _UNICODE /D UNICODE /Gm /EHsc /RTC1 /MDd /GS /fp:precise /Zc:wchar_t /Zc:forScope /Zc:inline /Yu"stdafx.h" /Fp"DEBUG\ZORKISH.PCH" /Fo"DEBUG\\" /Fd"DEBUG\VC140.PDB" /Gd /TP /analyze- C:\USERS\RUBYB_000\DOCUMENTS\A-UNIVERSITY\2NDYEAR\SEMESTER 2\COS30031\LAB\ZORKISH\ZORKISH\GAMEPLAY.CPP
^C:\USERS\RUBYB_000\DOCUMENTS\A-UNIVERSITY\2NDYEAR\SEMESTER 2\COS30031\LAB\ZORKISH\ZORKISH\HELP.CPP
/c /ZI /nologo /W3 /WX- /sdl /Od /Oy- /D WIN32 /D _DEBUG /D _CONSOLE /D _UNICODE /D UNICODE /Gm /EHsc /RTC1 /MDd /GS /fp:precise /Zc:wchar_t /Zc:forScope /Zc:inline /Yu"stdafx.h" /Fp"DEBUG\ZORKISH.PCH" /Fo"DEBUG\\" /Fd"DEBUG\VC140.PDB" /Gd /TP /analyze- C:\USERS\RUBYB_000\DOCUMENTS\A-UNIVERSITY\2NDYEAR\SEMESTER 2\COS30031\LAB\ZORKISH\ZORKISH\HELP.CPP
^C:\USERS\RUBYB_000\DOCUMENTS\A-UNIVERSITY\2NDYEAR\SEMESTER 2\COS30031\LAB\ZORKISH\ZORKISH\MAINMENU.CPP
/c /ZI /nologo /W3 /WX- /sdl /Od /Oy- /D WIN32 /D _DEBUG /D _CONSOLE /D _UNICODE /D UNICODE /Gm /EHsc /RTC1 /MDd /GS /fp:precise /Zc:wchar_t /Zc:forScope /Zc:inline /Yu"stdafx.h" /Fp"DEBUG\ZORKISH.PCH" /Fo"DEBUG\\" /Fd"DEBUG\VC140.PDB" /Gd /TP /analyze- C:\USERS\RUBYB_000\DOCUMENTS\A-UNIVERSITY\2NDYEAR\SEMESTER 2\COS30031\LAB\ZORKISH\ZORKISH\MAINMENU.CPP
^C:\USERS\RUBYB_000\DOCUMENTS\A-UNIVERSITY\2NDYEAR\SEMESTER 2\COS30031\LAB\ZORKISH\ZORKISH\NEWHIGHSCORE.CPP
/c /ZI /nologo /W3 /WX- /sdl /Od /Oy- /D WIN32 /D _DEBUG /D _CONSOLE /D _UNICODE /D UNICODE /Gm /EHsc /RTC1 /MDd /GS /fp:precise /Zc:wchar_t /Zc:forScope /Zc:inline /Yu"stdafx.h" /Fp"DEBUG\ZORKISH.PCH" /Fo"DEBUG\\" /Fd"DEBUG\VC140.PDB" /Gd /TP /analyze- C:\USERS\RUBYB_000\DOCUMENTS\A-UNIVERSITY\2NDYEAR\SEMESTER 2\COS30031\LAB\ZORKISH\ZORKISH\NEWHIGHSCORE.CPP
^C:\USERS\RUBYB_000\DOCUMENTS\A-UNIVERSITY\2NDYEAR\SEMESTER 2\COS30031\LAB\ZORKISH\ZORKISH\SELECTADVENTURE.CPP
/c /ZI /nologo /W3 /WX- /sdl /Od /Oy- /D WIN32 /D _DEBUG /D _CONSOLE /D _UNICODE /D UNICODE /Gm /EHsc /RTC1 /MDd /GS /fp:precise /Zc:wchar_t /Zc:forScope /Zc:inline /Yu"stdafx.h" /Fp"DEBUG\ZORKISH.PCH" /Fo"DEBUG\\" /Fd"DEBUG\VC140.PDB" /Gd /TP /analyze- C:\USERS\RUBYB_000\DOCUMENTS\A-UNIVERSITY\2NDYEAR\SEMESTER 2\COS30031\LAB\ZORKISH\ZORKISH\SELECTADVENTURE.CPP
^C:\USERS\RUBYB_000\DOCUMENTS\A-UNIVERSITY\2NDYEAR\SEMESTER 2\COS30031\LAB\ZORKISH\ZORKISH\STATE.CPP
/c /ZI /nologo /W3 /WX- /sdl /Od /Oy- /D WIN32 /D _DEBUG /D _CONSOLE /D _UNICODE /D UNICODE /Gm /EHsc /RTC1 /MDd /GS /fp:precise /Zc:wchar_t /Zc:forScope /Zc:inline /Yu"stdafx.h" /Fp"DEBUG\ZORKISH.PCH" /Fo"DEBUG\\" /Fd"DEBUG\VC140.PDB" /Gd /TP /analyze- C:\USERS\RUBYB_000\DOCUMENTS\A-UNIVERSITY\2NDYEAR\SEMESTER 2\COS30031\LAB\ZORKISH\ZORKISH\STATE.CPP
^C:\USERS\RUBYB_000\DOCUMENTS\A-UNIVERSITY\2NDYEAR\SEMESTER 2\COS30031\LAB\ZORKISH\ZORKISH\VIEWHALLOFFAME.CPP
/c /ZI /nologo /W3 /WX- /sdl /Od /Oy- /D WIN32 /D _DEBUG /D _CONSOLE /D _UNICODE /D UNICODE /Gm /EHsc /RTC1 /MDd /GS /fp:precise /Zc:wchar_t /Zc:forScope /Zc:inline /Yu"stdafx.h" /Fp"DEBUG\ZORKISH.PCH" /Fo"DEBUG\\" /Fd"DEBUG\VC140.PDB" /Gd /TP /analyze- C:\USERS\RUBYB_000\DOCUMENTS\A-UNIVERSITY\2NDYEAR\SEMESTER 2\COS30031\LAB\ZORKISH\ZORKISH\VIEWHALLOFFAME.CPP
^C:\USERS\RUBYB_000\DOCUMENTS\A-UNIVERSITY\2NDYEAR\SEMESTER 2\COS30031\LAB\ZORKISH\ZORKISH\ZORKISH.CPP
/c /ZI /nologo /W3 /WX- /sdl /Od /Oy- /D WIN32 /D _DEBUG /D _CONSOLE /D _UNICODE /D UNICODE /Gm /EHsc /RTC1 /MDd /GS /fp:precise /Zc:wchar_t /Zc:forScope /Zc:inline /Yu"stdafx.h" /Fp"DEBUG\ZORKISH.PCH" /Fo"DEBUG\\" /Fd"DEBUG\VC140.PDB" /Gd /TP /analyze- C:\USERS\RUBYB_000\DOCUMENTS\A-UNIVERSITY\2NDYEAR\SEMESTER 2\COS30031\LAB\ZORKISH\ZORKISH\ZORKISH.CPP
^C:\USERS\RUBYB_000\DOCUMENTS\A-UNIVERSITY\2NDYEAR\SEMESTER 2\COS30031\LAB\ZORKISH\ZORKISH\GAMECONTROLLER.CPP
/c /ZI /nologo /W3 /WX- /sdl /Od /Oy- /D WIN32 /D _DEBUG /D _CONSOLE /D _UNICODE /D UNICODE /Gm /EHsc /RTC1 /MDd /GS /fp:precise /Zc:wchar_t /Zc:forScope /Zc:inline /Yu"stdafx.h" /Fp"DEBUG\ZORKISH.PCH" /Fo"DEBUG\\" /Fd"DEBUG\VC140.PDB" /Gd /TP /analyze- C:\USERS\RUBYB_000\DOCUMENTS\A-UNIVERSITY\2NDYEAR\SEMESTER 2\COS30031\LAB\ZORKISH\ZORKISH\GAMECONTROLLER.CPP
^C:\USERS\RUBYB_000\DOCUMENTS\A-UNIVERSITY\2NDYEAR\SEMESTER 2\COS30031\LAB\SPIKE5\ZORKISH\ZORKISH\STDAFX.CPP
/c /ZI /nologo /W3 /WX- /sdl /Od /Oy- /D WIN32 /D _DEBUG /D _CONSOLE /D _UNICODE /D UNICODE /Gm /EHsc /RTC1 /MDd /GS /fp:precise /Zc:wchar_t /Zc:forScope /Zc:inline /Yc"stdafx.h" /Fp"DEBUG\ZORKISH.PCH" /Fo"DEBUG\\" /Fd"DEBUG\VC140.PDB" /Gd /TP /analyze- C:\USERS\RUBYB_000\DOCUMENTS\A-UNIVERSITY\2NDYEAR\SEMESTER 2\COS30031\LAB\SPIKE5\ZORKISH\ZORKISH\STDAFX.CPP
^C:\USERS\RUBYB_000\DOCUMENTS\A-UNIVERSITY\2NDYEAR\SEMESTER 2\COS30031\LAB\SPIKE5\ZORKISH\ZORKISH\ABOUT.CPP
/c /ZI /nologo /W3 /WX- /sdl /Od /Oy- /D WIN32 /D _DEBUG /D _CONSOLE /D _UNICODE /D UNICODE /Gm /EHsc /RTC1 /MDd /GS /fp:precise /Zc:wchar_t /Zc:forScope /Zc:inline /Yu"stdafx.h" /Fp"DEBUG\ZORKISH.PCH" /Fo"DEBUG\\" /Fd"DEBUG\VC140.PDB" /Gd /TP /analyze- C:\USERS\RUBYB_000\DOCUMENTS\A-UNIVERSITY\2NDYEAR\SEMESTER 2\COS30031\LAB\SPIKE5\ZORKISH\ZORKISH\ABOUT.CPP
^C:\USERS\RUBYB_000\DOCUMENTS\A-UNIVERSITY\2NDYEAR\SEMESTER 2\COS30031\LAB\SPIKE5\ZORKISH\ZORKISH\GAMECONTROLLER.CPP
/c /ZI /nologo /W3 /WX- /sdl /Od /Oy- /D WIN32 /D _DEBUG /D _CONSOLE /D _UNICODE /D UNICODE /Gm /EHsc /RTC1 /MDd /GS /fp:precise /Zc:wchar_t /Zc:forScope /Zc:inline /Yu"stdafx.h" /Fp"DEBUG\ZORKISH.PCH" /Fo"DEBUG\\" /Fd"DEBUG\VC140.PDB" /Gd /TP /analyze- C:\USERS\RUBYB_000\DOCUMENTS\A-UNIVERSITY\2NDYEAR\SEMESTER 2\COS30031\LAB\SPIKE5\ZORKISH\ZORKISH\GAMECONTROLLER.CPP
^C:\USERS\RUBYB_000\DOCUMENTS\A-UNIVERSITY\2NDYEAR\SEMESTER 2\COS30031\LAB\SPIKE5\ZORKISH\ZORKISH\GAMEPLAY.CPP
/c /ZI /nologo /W3 /WX- /sdl /Od /Oy- /D WIN32 /D _DEBUG /D _CONSOLE /D _UNICODE /D UNICODE /Gm /EHsc /RTC1 /MDd /GS /fp:precise /Zc:wchar_t /Zc:forScope /Zc:inline /Yu"stdafx.h" /Fp"DEBUG\ZORKISH.PCH" /Fo"DEBUG\\" /Fd"DEBUG\VC140.PDB" /Gd /TP /analyze- C:\USERS\RUBYB_000\DOCUMENTS\A-UNIVERSITY\2NDYEAR\SEMESTER 2\COS30031\LAB\SPIKE5\ZORKISH\ZORKISH\GAMEPLAY.CPP
^C:\USERS\RUBYB_000\DOCUMENTS\A-UNIVERSITY\2NDYEAR\SEMESTER 2\COS30031\LAB\SPIKE5\ZORKISH\ZORKISH\HELP.CPP
/c /ZI /nologo /W3 /WX- /sdl /Od /Oy- /D WIN32 /D _DEBUG /D _CONSOLE /D _UNICODE /D UNICODE /Gm /EHsc /RTC1 /MDd /GS /fp:precise /Zc:wchar_t /Zc:forScope /Zc:inline /Yu"stdafx.h" /Fp"DEBUG\ZORKISH.PCH" /Fo"DEBUG\\" /Fd"DEBUG\VC140.PDB" /Gd /TP /analyze- C:\USERS\RUBYB_000\DOCUMENTS\A-UNIVERSITY\2NDYEAR\SEMESTER 2\COS30031\LAB\SPIKE5\ZORKISH\ZORKISH\HELP.CPP
^C:\USERS\RUBYB_000\DOCUMENTS\A-UNIVERSITY\2NDYEAR\SEMESTER 2\COS30031\LAB\SPIKE5\ZORKISH\ZORKISH\MAINMENU.CPP
/c /ZI /nologo /W3 /WX- /sdl /Od /Oy- /D WIN32 /D _DEBUG /D _CONSOLE /D _UNICODE /D UNICODE /Gm /EHsc /RTC1 /MDd /GS /fp:precise /Zc:wchar_t /Zc:forScope /Zc:inline /Yu"stdafx.h" /Fp"DEBUG\ZORKISH.PCH" /Fo"DEBUG\\" /Fd"DEBUG\VC140.PDB" /Gd /TP /analyze- C:\USERS\RUBYB_000\DOCUMENTS\A-UNIVERSITY\2NDYEAR\SEMESTER 2\COS30031\LAB\SPIKE5\ZORKISH\ZORKISH\MAINMENU.CPP
^C:\USERS\RUBYB_000\DOCUMENTS\A-UNIVERSITY\2NDYEAR\SEMESTER 2\COS30031\LAB\SPIKE5\ZORKISH\ZORKISH\NEWHIGHSCORE.CPP
/c /ZI /nologo /W3 /WX- /sdl /Od /Oy- /D WIN32 /D _DEBUG /D _CONSOLE /D _UNICODE /D UNICODE /Gm /EHsc /RTC1 /MDd /GS /fp:precise /Zc:wchar_t /Zc:forScope /Zc:inline /Yu"stdafx.h" /Fp"DEBUG\ZORKISH.PCH" /Fo"DEBUG\\" /Fd"DEBUG\VC140.PDB" /Gd /TP /analyze- C:\USERS\RUBYB_000\DOCUMENTS\A-UNIVERSITY\2NDYEAR\SEMESTER 2\COS30031\LAB\SPIKE5\ZORKISH\ZORKISH\NEWHIGHSCORE.CPP
^C:\USERS\RUBYB_000\DOCUMENTS\A-UNIVERSITY\2NDYEAR\SEMESTER 2\COS30031\LAB\SPIKE5\ZORKISH\ZORKISH\SELECTADVENTURE.CPP
/c /ZI /nologo /W3 /WX- /sdl /Od /Oy- /D WIN32 /D _DEBUG /D _CONSOLE /D _UNICODE /D UNICODE /Gm /EHsc /RTC1 /MDd /GS /fp:precise /Zc:wchar_t /Zc:forScope /Zc:inline /Yu"stdafx.h" /Fp"DEBUG\ZORKISH.PCH" /Fo"DEBUG\\" /Fd"DEBUG\VC140.PDB" /Gd /TP /analyze- C:\USERS\RUBYB_000\DOCUMENTS\A-UNIVERSITY\2NDYEAR\SEMESTER 2\COS30031\LAB\SPIKE5\ZORKISH\ZORKISH\SELECTADVENTURE.CPP
^C:\USERS\RUBYB_000\DOCUMENTS\A-UNIVERSITY\2NDYEAR\SEMESTER 2\COS30031\LAB\SPIKE5\ZORKISH\ZORKISH\STATE.CPP
/c /ZI /nologo /W3 /WX- /sdl /Od /Oy- /D WIN32 /D _DEBUG /D _CONSOLE /D _UNICODE /D UNICODE /Gm /EHsc /RTC1 /MDd /GS /fp:precise /Zc:wchar_t /Zc:forScope /Zc:inline /Yu"stdafx.h" /Fp"DEBUG\ZORKISH.PCH" /Fo"DEBUG\\" /Fd"DEBUG\VC140.PDB" /Gd /TP /analyze- C:\USERS\RUBYB_000\DOCUMENTS\A-UNIVERSITY\2NDYEAR\SEMESTER 2\COS30031\LAB\SPIKE5\ZORKISH\ZORKISH\STATE.CPP
^C:\USERS\RUBYB_000\DOCUMENTS\A-UNIVERSITY\2NDYEAR\SEMESTER 2\COS30031\LAB\SPIKE5\ZORKISH\ZORKISH\VIEWHALLOFFAME.CPP
/c /ZI /nologo /W3 /WX- /sdl /Od /Oy- /D WIN32 /D _DEBUG /D _CONSOLE /D _UNICODE /D UNICODE /Gm /EHsc /RTC1 /MDd /GS /fp:precise /Zc:wchar_t /Zc:forScope /Zc:inline /Yu"stdafx.h" /Fp"DEBUG\ZORKISH.PCH" /Fo"DEBUG\\" /Fd"DEBUG\VC140.PDB" /Gd /TP /analyze- C:\USERS\RUBYB_000\DOCUMENTS\A-UNIVERSITY\2NDYEAR\SEMESTER 2\COS30031\LAB\SPIKE5\ZORKISH\ZORKISH\VIEWHALLOFFAME.CPP
^C:\USERS\RUBYB_000\DOCUMENTS\A-UNIVERSITY\2NDYEAR\SEMESTER 2\COS30031\LAB\SPIKE5\ZORKISH\ZORKISH\ZORKISH.CPP
/c /ZI /nologo /W3 /WX- /sdl /Od /Oy- /D WIN32 /D _DEBUG /D _CONSOLE /D _UNICODE /D UNICODE /Gm /EHsc /RTC1 /MDd /GS /fp:precise /Zc:wchar_t /Zc:forScope /Zc:inline /Yu"stdafx.h" /Fp"DEBUG\ZORKISH.PCH" /Fo"DEBUG\\" /Fd"DEBUG\VC140.PDB" /Gd /TP /analyze- C:\USERS\RUBYB_000\DOCUMENTS\A-UNIVERSITY\2NDYEAR\SEMESTER 2\COS30031\LAB\SPIKE5\ZORKISH\ZORKISH\ZORKISH.CPP
